﻿Log file open, 05/15/22 15:53:47
LogWindows: Failed to load 'aqProf.dll' (GetLastError=126)
LogWindows: File 'aqProf.dll' does not exist
LogWindows: Failed to load 'VtuneApi.dll' (GetLastError=126)
LogWindows: File 'VtuneApi.dll' does not exist
LogWindows: Failed to load 'VtuneApi32e.dll' (GetLastError=126)
LogWindows: File 'VtuneApi32e.dll' does not exist
LogConsoleResponse: Display: Failed to find resolution value strings in scalability ini. Falling back to default.
LogConsoleResponse: Display: Failed to find resolution value strings in scalability ini. Falling back to default.
LogInit: Display: Running engine for game: Snake
LogPlatformFile: Not using cached read wrapper
LogTaskGraph: Started task graph with 5 named threads and 71 total threads with 3 sets of task threads.
LogStats: Stats thread started at 0.180000
LogICUInternationalization: ICU TimeZone Detection - Raw Offset: +3:00, Platform Override: ''
LogInit: Display: Loading text-based GConfig....
LogPluginManager: Mounting plugin MeshPainting
LogPluginManager: Mounting plugin XGEController
LogPluginManager: Mounting plugin AISupport
LogPluginManager: Mounting plugin Paper2D
LogPluginManager: Mounting plugin LightPropagationVolume
LogPluginManager: Mounting plugin LiveLink
LogPluginManager: Mounting plugin EnvironmentQueryEditor
LogPluginManager: Mounting plugin GameplayCameras
LogPluginManager: Mounting plugin CameraShakePreviewer
LogPluginManager: Mounting plugin AnimationSharing
LogPluginManager: Mounting plugin CLionSourceCodeAccess
LogPluginManager: Mounting plugin DatasmithContent
LogPluginManager: Mounting plugin CodeLiteSourceCodeAccess
LogPluginManager: Mounting plugin KDevelopSourceCodeAccess
LogPluginManager: Mounting plugin PerforceSourceControl
LogPluginManager: Mounting plugin PluginUtils
LogPluginManager: Mounting plugin NullSourceCodeAccess
LogPluginManager: Mounting plugin PlasticSourceControl
LogPluginManager: Mounting plugin GitSourceControl
LogPluginManager: Mounting plugin TextureFormatOodle
LogPluginManager: Mounting plugin PropertyAccessNode
LogPluginManager: Mounting plugin RiderSourceCodeAccess
LogPluginManager: Mounting plugin PixWinPlugin
LogPluginManager: Mounting plugin UObjectPlugin
LogPluginManager: Mounting plugin XCodeSourceCodeAccess
LogPluginManager: Mounting plugin VisualStudioCodeSourceCodeAccess
LogPluginManager: Mounting plugin SubversionSourceControl
LogPluginManager: Mounting plugin VisualStudioSourceCodeAccess
LogPluginManager: Mounting plugin AutomationUtils
LogPluginManager: Mounting plugin AlembicImporter
LogPluginManager: Mounting plugin BackChannel
LogPluginManager: Mounting plugin AssetManagerEditor
LogPluginManager: Mounting plugin ChaosClothEditor
LogPluginManager: Mounting plugin ChaosEditor
LogPluginManager: Mounting plugin ChaosNiagara
LogPluginManager: Mounting plugin ChaosSolverPlugin
LogPluginManager: Mounting plugin ChaosCloth
LogPluginManager: Mounting plugin VariantManagerContent
LogPluginManager: Mounting plugin CharacterAI
LogPluginManager: Mounting plugin GeometryCache
LogPluginManager: Mounting plugin GeometryCollectionPlugin
LogPluginManager: Mounting plugin GeometryProcessing
LogPluginManager: Mounting plugin OpenImageDenoise
LogPluginManager: Mounting plugin MotoSynth
LogPluginManager: Mounting plugin PlatformCrypto
LogPluginManager: Mounting plugin PythonScriptPlugin
LogPluginManager: Mounting plugin ProxyLODPlugin
LogPluginManager: Mounting plugin SkeletalReduction
LogPluginManager: Mounting plugin PlanarCut
LogPluginManager: Mounting plugin Niagara
LogPluginManager: Mounting plugin LuminPlatformFeatures
LogPluginManager: Mounting plugin MagicLeap
LogPluginManager: Mounting plugin MagicLeapMedia
LogPluginManager: Mounting plugin MagicLeapPassableWorld
LogPluginManager: Mounting plugin AndroidMedia
LogPluginManager: Mounting plugin MLSDK
LogPluginManager: Mounting plugin AvfMedia
LogPluginManager: Mounting plugin MagicLeapLightEstimation
LogPluginManager: Mounting plugin ImgMedia
LogPluginManager: Mounting plugin MediaPlayerEditor
LogPluginManager: Mounting plugin MediaCompositing
LogPluginManager: Mounting plugin WebMMedia
LogPluginManager: Mounting plugin TcpMessaging
LogPluginManager: Mounting plugin WmfMedia
LogPluginManager: Mounting plugin UdpMessaging
LogPluginManager: Mounting plugin MatineeToLevelSequence
LogPluginManager: Mounting plugin ActorSequence
LogPluginManager: Mounting plugin LevelSequenceEditor
LogPluginManager: Mounting plugin TemplateSequence
LogPluginManager: Mounting plugin OnlineSubsystem
LogPluginManager: Mounting plugin OnlineSubsystemNull
LogPluginManager: Mounting plugin LauncherChunkInstaller
LogPluginManager: Mounting plugin OnlineSubsystemUtils
LogPluginManager: Mounting plugin ActorLayerUtilities
LogPluginManager: Mounting plugin AndroidDeviceProfileSelector
LogPluginManager: Mounting plugin AndroidMoviePlayer
LogPluginManager: Mounting plugin AndroidPermission
LogPluginManager: Mounting plugin AppleImageUtils
LogPluginManager: Mounting plugin ArchVisCharacter
LogPluginManager: Mounting plugin AppleMoviePlayer
LogPluginManager: Mounting plugin AudioCapture
LogPluginManager: Mounting plugin CableComponent
LogPluginManager: Mounting plugin AssetTags
LogPluginManager: Mounting plugin AudioSynesthesia
LogPluginManager: Mounting plugin CustomMeshComponent
LogPluginManager: Mounting plugin ChunkDownloader
LogPluginManager: Mounting plugin EditableMesh
LogPluginManager: Mounting plugin ExampleDeviceProfileSelector
LogPluginManager: Mounting plugin GoogleCloudMessaging
LogPluginManager: Mounting plugin GooglePAD
LogPluginManager: Mounting plugin IOSDeviceProfileSelector
LogPluginManager: Mounting plugin LinuxDeviceProfileSelector
LogPluginManager: Mounting plugin LocationServicesBPLibrary
LogPluginManager: Mounting plugin MobilePatchingUtils
LogPluginManager: Mounting plugin OpenXR
LogPluginManager: Mounting plugin OpenXREyeTracker
LogPluginManager: Mounting plugin OpenXRHandTracking
LogPluginManager: Mounting plugin PhysXVehicles
LogPluginManager: Mounting plugin PostSplashScreen
LogPluginManager: Mounting plugin ProceduralMeshComponent
LogPluginManager: Mounting plugin PropertyAccessEditor
LogPluginManager: Mounting plugin RuntimePhysXCooking
LogPluginManager: Mounting plugin SignificanceManager
LogPluginManager: Mounting plugin SoundFields
LogPluginManager: Mounting plugin Synthesis
LogPluginManager: Mounting plugin WebMMoviePlayer
LogPluginManager: Mounting plugin WindowsMoviePlayer
LogPluginManager: Mounting plugin ScreenshotTools
LogPluginManager: Mounting plugin Takes
LogPluginManager: Mounting plugin CurveEditorTools
LogPluginManager: Mounting plugin CryptoKeys
LogPluginManager: Mounting plugin DataValidation
LogPluginManager: Mounting plugin FacialAnimation
LogPluginManager: Mounting plugin GameplayTagsEditor
LogPluginManager: Mounting plugin MacGraphicsSwitching
LogPluginManager: Mounting plugin GeometryMode
LogPluginManager: Mounting plugin MaterialAnalyzer
LogPluginManager: Mounting plugin PluginBrowser
LogPluginManager: Mounting plugin MobileLauncherProfileWizard
LogPluginManager: Mounting plugin OodleData
LogPluginManager: Mounting plugin OodleNetwork
LogPluginManager: Mounting plugin SpeedTreeImporter
LogPluginManager: Mounting plugin OnlineSubsystemGooglePlay
LogPluginManager: Mounting plugin OnlineSubsystemIOS
LogPluginManager: Mounting plugin OculusVR
LogPluginManager: Mounting plugin SteamVR
LogPluginManager: Mounting plugin ContentBrowserAssetDataSource
LogPluginManager: Mounting plugin ContentBrowserFileDataSource
LogPluginManager: Mounting plugin ContentBrowserClassDataSource
PixWinPlugin: PIX capture plugin failed to initialize! Check that the process is launched from PIX.
LogInit: Using libcurl 7.55.1-DEV
LogInit:  - built for x86_64-pc-win32
LogInit:  - supports SSL with OpenSSL/1.1.1
LogInit:  - supports HTTP deflate (compression) using libz 1.2.8
LogInit:  - other features:
LogInit:      CURL_VERSION_SSL
LogInit:      CURL_VERSION_LIBZ
LogInit:      CURL_VERSION_IPV6
LogInit:      CURL_VERSION_ASYNCHDNS
LogInit:      CURL_VERSION_LARGEFILE
LogInit:      CURL_VERSION_IDN
LogInit:  CurlRequestOptions (configurable via config and command line):
LogInit:  - bVerifyPeer = true  - Libcurl will verify peer certificate
LogInit:  - bUseHttpProxy = false  - Libcurl will NOT use HTTP proxy
LogInit:  - bDontReuseConnections = false  - Libcurl will reuse connections
LogInit:  - MaxHostConnections = 16  - Libcurl will limit the number of connections to a host
LogInit:  - LocalHostAddr = Default
LogInit:  - BufferSize = 65536
LogOnline: OSS: Creating online subsystem instance for: NULL
LogInit: WinSock: version 1.1 (2.2), MaxSocks=32767, MaxUdp=65467
LogOnline: OSS: TryLoadSubsystemAndSetDefault: Loaded subsystem for module [NULL]
LogOculusPluginWrapper: OculusPlugin initialized successfully
LogHMD: Failed initializing OVRPlugin 1.59.0
LogInit: Build: ++UE4+Release-4.27-CL-18319896
LogInit: Engine Version: 4.27.2-18319896+++UE4+Release-4.27
LogInit: Compatible Engine Version: 4.27.0-17155196+++UE4+Release-4.27
LogInit: Net CL: 17155196
LogInit: OS: Windows 10 (Release 2009) (), CPU: AMD Ryzen 9 5900X 12-Core Processor            , GPU: NVIDIA GeForce GTX 1070
LogInit: Compiled (64-bit): Nov 30 2021 07:12:08
LogInit: Compiled with Visual C++: 19.24.28315.00
LogInit: Build Configuration: Development
LogInit: Branch Name: ++UE4+Release-4.27
LogInit: Command Line: 
LogInit: Base Directory: D:/Unreal_Engine/UE_4.27/Engine/Binaries/Win64/
LogInit: Allocator: TBB
LogInit: Installed Engine Build: 1
LogDevObjectVersion: Number of dev versions registered: 29
LogDevObjectVersion:   Dev-Blueprints (B0D832E4-1F89-4F0D-ACCF-7EB736FD4AA2): 10
LogDevObjectVersion:   Dev-Build (E1C64328-A22C-4D53-A36C-8E866417BD8C): 0
LogDevObjectVersion:   Dev-Core (375EC13C-06E4-48FB-B500-84F0262A717E): 4
LogDevObjectVersion:   Dev-Editor (E4B068ED-F494-42E9-A231-DA0B2E46BB41): 40
LogDevObjectVersion:   Dev-Framework (CFFC743F-43B0-4480-9391-14DF171D2073): 37
LogDevObjectVersion:   Dev-Mobile (B02B49B5-BB20-44E9-A304-32B752E40360): 3
LogDevObjectVersion:   Dev-Networking (A4E4105C-59A1-49B5-A7C5-40C4547EDFEE): 0
LogDevObjectVersion:   Dev-Online (39C831C9-5AE6-47DC-9A44-9C173E1C8E7C): 0
LogDevObjectVersion:   Dev-Physics (78F01B33-EBEA-4F98-B9B4-84EACCB95AA2): 14
LogDevObjectVersion:   Dev-Platform (6631380F-2D4D-43E0-8009-CF276956A95A): 0
LogDevObjectVersion:   Dev-Rendering (12F88B9F-8875-4AFC-A67C-D90C383ABD29): 45
LogDevObjectVersion:   Dev-Sequencer (7B5AE74C-D270-4C10-A958-57980B212A5A): 13
LogDevObjectVersion:   Dev-VR (D7296918-1DD6-4BDD-9DE2-64A83CC13884): 3
LogDevObjectVersion:   Dev-LoadTimes (C2A15278-BFE7-4AFE-6C17-90FF531DF755): 1
LogDevObjectVersion:   Private-Geometry (6EACA3D4-40EC-4CC1-B786-8BED09428FC5): 3
LogDevObjectVersion:   Dev-AnimPhys (29E575DD-E0A3-4627-9D10-D276232CDCEA): 17
LogDevObjectVersion:   Dev-Anim (AF43A65D-7FD3-4947-9873-3E8ED9C1BB05): 15
LogDevObjectVersion:   Dev-ReflectionCapture (6B266CEC-1EC7-4B8F-A30B-E4D90942FC07): 1
LogDevObjectVersion:   Dev-Automation (0DF73D61-A23F-47EA-B727-89E90C41499A): 1
LogDevObjectVersion:   FortniteMain (601D1886-AC64-4F84-AA16-D3DE0DEAC7D6): 47
LogDevObjectVersion:   FortniteRelease (E7086368-6B23-4C58-8439-1B7016265E91): 1
LogDevObjectVersion:   Dev-Enterprise (9DFFBCD6-494F-0158-E221-12823C92A888): 10
LogDevObjectVersion:   Dev-Niagara (F2AED0AC-9AFE-416F-8664-AA7FFA26D6FC): 1
LogDevObjectVersion:   Dev-Destruction (174F1F0B-B4C6-45A5-B13F-2EE8D0FB917D): 10
LogDevObjectVersion:   Dev-Physics-Ext (35F94A83-E258-406C-A318-09F59610247C): 41
LogDevObjectVersion:   Dev-PhysicsMaterial-Chaos (B68FC16E-8B1B-42E2-B453-215C058844FE): 1
LogDevObjectVersion:   Dev-CineCamera (B2E18506-4273-CFC2-A54E-F4BB758BBA07): 1
LogDevObjectVersion:   Dev-VirtualProduction (64F58936-FD1B-42BA-BA96-7289D5D0FA4E): 1
LogDevObjectVersion:   Dev-MediaFramework (6F0ED827-A609-4895-9C91-998D90180EA4): 2
LogInit: Presizing for max 25165824 objects, including 0 objects not considered by GC, pre-allocating 0 bytes for permanent pool.
LogConfig: Applying CVar settings from Section [/Script/Engine.StreamingSettings] File [D:/Projects/Snake/Saved/Config/Windows/Engine.ini]
LogConfig: Setting CVar [[s.MinBulkDataSizeForAsyncLoading:131072]]
LogConfig: Setting CVar [[s.AsyncLoadingThreadEnabled:0]]
LogConfig: Setting CVar [[s.EventDrivenLoaderEnabled:1]]
LogConfig: Setting CVar [[s.WarnIfTimeLimitExceeded:0]]
LogConfig: Setting CVar [[s.TimeLimitExceededMultiplier:1.5]]
LogConfig: Setting CVar [[s.TimeLimitExceededMinTime:0.005]]
LogConfig: Setting CVar [[s.UseBackgroundLevelStreaming:1]]
LogConfig: Setting CVar [[s.PriorityAsyncLoadingExtraTime:15.0]]
LogConfig: Setting CVar [[s.LevelStreamingActorsUpdateTimeLimit:5.0]]
LogConfig: Setting CVar [[s.PriorityLevelStreamingActorsUpdateExtraTime:5.0]]
LogConfig: Setting CVar [[s.LevelStreamingComponentsRegistrationGranularity:10]]
LogConfig: Setting CVar [[s.UnregisterComponentsTimeLimit:1.0]]
LogConfig: Setting CVar [[s.LevelStreamingComponentsUnregistrationGranularity:5]]
LogConfig: Setting CVar [[s.FlushStreamingOnExit:1]]
LogInit: Object subsystem initialized
LogConfig: Setting CVar [[con.DebugEarlyDefault:1]]
LogConfig: Setting CVar [[r.setres:1280x720]]
[2022.05.15-12.53.47:615][  0]LogConfig: Setting CVar [[r.VSync:0]]
[2022.05.15-12.53.47:615][  0]LogConfig: Setting CVar [[r.RHICmdBypass:0]]
[2022.05.15-12.53.47:615][  0]LogConfig: Applying CVar settings from Section [/Script/Engine.RendererSettings] File [D:/Projects/Snake/Saved/Config/Windows/Engine.ini]
[2022.05.15-12.53.47:615][  0]LogConfig: Setting CVar [[r.GPUCrashDebugging:0]]
[2022.05.15-12.53.47:615][  0]LogConfig: Setting CVar [[r.DefaultFeature.MotionBlur:0]]
[2022.05.15-12.53.47:615][  0]LogConfig: Setting CVar [[r.DefaultFeature.AntiAliasing:0]]
[2022.05.15-12.53.47:615][  0]LogConfig: Applying CVar settings from Section [/Script/Engine.RendererOverrideSettings] File [D:/Projects/Snake/Saved/Config/Windows/Engine.ini]
[2022.05.15-12.53.47:615][  0]LogConfig: Applying CVar settings from Section [/Script/Engine.StreamingSettings] File [D:/Projects/Snake/Saved/Config/Windows/Engine.ini]
[2022.05.15-12.53.47:615][  0]LogConfig: Setting CVar [[s.MinBulkDataSizeForAsyncLoading:131072]]
[2022.05.15-12.53.47:615][  0]LogConfig: Setting CVar [[s.AsyncLoadingThreadEnabled:0]]
[2022.05.15-12.53.47:615][  0]LogConfig: Setting CVar [[s.EventDrivenLoaderEnabled:1]]
[2022.05.15-12.53.47:615][  0]LogConfig: Setting CVar [[s.WarnIfTimeLimitExceeded:0]]
[2022.05.15-12.53.47:615][  0]LogConfig: Setting CVar [[s.TimeLimitExceededMultiplier:1.5]]
[2022.05.15-12.53.47:615][  0]LogConfig: Setting CVar [[s.TimeLimitExceededMinTime:0.005]]
[2022.05.15-12.53.47:615][  0]LogConfig: Setting CVar [[s.UseBackgroundLevelStreaming:1]]
[2022.05.15-12.53.47:615][  0]LogConfig: Setting CVar [[s.PriorityAsyncLoadingExtraTime:15.0]]
[2022.05.15-12.53.47:615][  0]LogConfig: Setting CVar [[s.LevelStreamingActorsUpdateTimeLimit:5.0]]
[2022.05.15-12.53.47:615][  0]LogConfig: Setting CVar [[s.PriorityLevelStreamingActorsUpdateExtraTime:5.0]]
[2022.05.15-12.53.47:615][  0]LogConfig: Setting CVar [[s.LevelStreamingComponentsRegistrationGranularity:10]]
[2022.05.15-12.53.47:615][  0]LogConfig: Setting CVar [[s.UnregisterComponentsTimeLimit:1.0]]
[2022.05.15-12.53.47:615][  0]LogConfig: Setting CVar [[s.LevelStreamingComponentsUnregistrationGranularity:5]]
[2022.05.15-12.53.47:615][  0]LogConfig: Setting CVar [[s.FlushStreamingOnExit:1]]
[2022.05.15-12.53.47:615][  0]LogConfig: Applying CVar settings from Section [/Script/Engine.GarbageCollectionSettings] File [D:/Projects/Snake/Saved/Config/Windows/Engine.ini]
[2022.05.15-12.53.47:615][  0]LogConfig: Setting CVar [[gc.MaxObjectsNotConsideredByGC:1]]
[2022.05.15-12.53.47:615][  0]LogConfig: Setting CVar [[gc.SizeOfPermanentObjectPool:0]]
[2022.05.15-12.53.47:615][  0]LogConfig: Setting CVar [[gc.FlushStreamingOnGC:0]]
[2022.05.15-12.53.47:615][  0]LogConfig: Setting CVar [[gc.NumRetriesBeforeForcingGC:10]]
[2022.05.15-12.53.47:615][  0]LogConfig: Setting CVar [[gc.AllowParallelGC:1]]
[2022.05.15-12.53.47:615][  0]LogConfig: Setting CVar [[gc.TimeBetweenPurgingPendingKillObjects:61.1]]
[2022.05.15-12.53.47:615][  0]LogConfig: Setting CVar [[gc.MaxObjectsInEditor:25165824]]
[2022.05.15-12.53.47:615][  0]LogConfig: Setting CVar [[gc.IncrementalBeginDestroyEnabled:1]]
[2022.05.15-12.53.47:615][  0]LogConfig: Setting CVar [[gc.CreateGCClusters:1]]
[2022.05.15-12.53.47:615][  0]LogConfig: Setting CVar [[gc.MinGCClusterSize:5]]
[2022.05.15-12.53.47:615][  0]LogConfig: Setting CVar [[gc.ActorClusteringEnabled:0]]
[2022.05.15-12.53.47:615][  0]LogConfig: Setting CVar [[gc.BlueprintClusteringEnabled:0]]
[2022.05.15-12.53.47:615][  0]LogConfig: Setting CVar [[gc.UseDisregardForGCOnDedicatedServers:0]]
[2022.05.15-12.53.47:615][  0]LogConfig: Setting CVar [[gc.MultithreadedDestructionEnabled:1]]
[2022.05.15-12.53.47:615][  0]LogConfig: Applying CVar settings from Section [/Script/Engine.NetworkSettings] File [D:/Projects/Snake/Saved/Config/Windows/Engine.ini]
[2022.05.15-12.53.47:615][  0]LogConfig: Applying CVar settings from Section [/Script/UnrealEd.CookerSettings] File [D:/Projects/Snake/Saved/Config/Windows/Engine.ini]
[2022.05.15-12.53.47:625][  0]LogConfig: Applying CVar settings from Section [ViewDistanceQuality@3] File [D:/Projects/Snake/Saved/Config/Windows/Scalability.ini]
[2022.05.15-12.53.47:625][  0]LogConfig: Setting CVar [[r.SkeletalMeshLODBias:0]]
[2022.05.15-12.53.47:625][  0]LogConfig: Setting CVar [[r.ViewDistanceScale:1.0]]
[2022.05.15-12.53.47:625][  0]LogConfig: Applying CVar settings from Section [AntiAliasingQuality@3] File [D:/Projects/Snake/Saved/Config/Windows/Scalability.ini]
[2022.05.15-12.53.47:625][  0]LogConfig: Setting CVar [[r.PostProcessAAQuality:4]]
[2022.05.15-12.53.47:625][  0]LogConfig: Applying CVar settings from Section [ShadowQuality@3] File [D:/Projects/Snake/Saved/Config/Windows/Scalability.ini]
[2022.05.15-12.53.47:625][  0]LogConfig: Setting CVar [[r.LightFunctionQuality:1]]
[2022.05.15-12.53.47:625][  0]LogConfig: Setting CVar [[r.ShadowQuality:5]]
[2022.05.15-12.53.47:625][  0]LogConfig: Setting CVar [[r.Shadow.CSM.MaxCascades:10]]
[2022.05.15-12.53.47:625][  0]LogConfig: Setting CVar [[r.Shadow.MaxResolution:2048]]
[2022.05.15-12.53.47:625][  0]LogConfig: Setting CVar [[r.Shadow.MaxCSMResolution:2048]]
[2022.05.15-12.53.47:625][  0]LogConfig: Setting CVar [[r.Shadow.RadiusThreshold:0.01]]
[2022.05.15-12.53.47:625][  0]LogConfig: Setting CVar [[r.Shadow.DistanceScale:1.0]]
[2022.05.15-12.53.47:625][  0]LogConfig: Setting CVar [[r.Shadow.CSM.TransitionScale:1.0]]
[2022.05.15-12.53.47:625][  0]LogConfig: Setting CVar [[r.Shadow.PreShadowResolutionFactor:1.0]]
[2022.05.15-12.53.47:625][  0]LogConfig: Setting CVar [[r.DistanceFieldShadowing:1]]
[2022.05.15-12.53.47:625][  0]LogConfig: Setting CVar [[r.DistanceFieldAO:1]]
[2022.05.15-12.53.47:625][  0]LogConfig: Setting CVar [[r.AOQuality:2]]
[2022.05.15-12.53.47:625][  0]LogConfig: Setting CVar [[r.VolumetricFog:1]]
[2022.05.15-12.53.47:625][  0]LogConfig: Setting CVar [[r.VolumetricFog.GridPixelSize:8]]
[2022.05.15-12.53.47:625][  0]LogConfig: Setting CVar [[r.VolumetricFog.GridSizeZ:128]]
[2022.05.15-12.53.47:625][  0]LogConfig: Setting CVar [[r.VolumetricFog.HistoryMissSupersampleCount:4]]
[2022.05.15-12.53.47:625][  0]LogConfig: Setting CVar [[r.LightMaxDrawDistanceScale:1]]
[2022.05.15-12.53.47:625][  0]LogConfig: Setting CVar [[r.CapsuleShadows:1]]
[2022.05.15-12.53.47:625][  0]LogConfig: Applying CVar settings from Section [PostProcessQuality@3] File [D:/Projects/Snake/Saved/Config/Windows/Scalability.ini]
[2022.05.15-12.53.47:625][  0]LogConfig: Setting CVar [[r.MotionBlurQuality:4]]
[2022.05.15-12.53.47:625][  0]LogConfig: Setting CVar [[r.AmbientOcclusionMipLevelFactor:0.4]]
[2022.05.15-12.53.47:625][  0]LogConfig: Setting CVar [[r.AmbientOcclusionMaxQuality:100]]
[2022.05.15-12.53.47:625][  0]LogConfig: Setting CVar [[r.AmbientOcclusionLevels:-1]]
[2022.05.15-12.53.47:625][  0]LogConfig: Setting CVar [[r.AmbientOcclusionRadiusScale:1.0]]
[2022.05.15-12.53.47:625][  0]LogConfig: Setting CVar [[r.DepthOfFieldQuality:2]]
[2022.05.15-12.53.47:625][  0]LogConfig: Setting CVar [[r.RenderTargetPoolMin:400]]
[2022.05.15-12.53.47:625][  0]LogConfig: Setting CVar [[r.LensFlareQuality:2]]
[2022.05.15-12.53.47:625][  0]LogConfig: Setting CVar [[r.SceneColorFringeQuality:1]]
[2022.05.15-12.53.47:625][  0]LogConfig: Setting CVar [[r.EyeAdaptationQuality:2]]
[2022.05.15-12.53.47:625][  0]LogConfig: Setting CVar [[r.BloomQuality:5]]
[2022.05.15-12.53.47:625][  0]LogConfig: Setting CVar [[r.FastBlurThreshold:100]]
[2022.05.15-12.53.47:625][  0]LogConfig: Setting CVar [[r.Upscale.Quality:3]]
[2022.05.15-12.53.47:625][  0]LogConfig: Setting CVar [[r.Tonemapper.GrainQuantization:1]]
[2022.05.15-12.53.47:625][  0]LogConfig: Setting CVar [[r.LightShaftQuality:1]]
[2022.05.15-12.53.47:625][  0]LogConfig: Setting CVar [[r.Filter.SizeScale:1]]
[2022.05.15-12.53.47:625][  0]LogConfig: Setting CVar [[r.Tonemapper.Quality:5]]
[2022.05.15-12.53.47:625][  0]LogConfig: Setting CVar [[r.DOF.Gather.AccumulatorQuality:1        ; higher gathering accumulator quality]]
[2022.05.15-12.53.47:625][  0]LogConfig: Setting CVar [[r.DOF.Gather.PostfilterMethod:1          ; Median3x3 postfilering method]]
[2022.05.15-12.53.47:625][  0]LogConfig: Setting CVar [[r.DOF.Gather.EnableBokehSettings:0       ; no bokeh simulation when gathering]]
[2022.05.15-12.53.47:625][  0]LogConfig: Setting CVar [[r.DOF.Gather.RingCount:4                 ; medium number of samples when gathering]]
[2022.05.15-12.53.47:625][  0]LogConfig: Setting CVar [[r.DOF.Scatter.ForegroundCompositing:1    ; additive foreground scattering]]
[2022.05.15-12.53.47:625][  0]LogConfig: Setting CVar [[r.DOF.Scatter.BackgroundCompositing:2    ; additive background scattering]]
[2022.05.15-12.53.47:625][  0]LogConfig: Setting CVar [[r.DOF.Scatter.EnableBokehSettings:1      ; bokeh simulation when scattering]]
[2022.05.15-12.53.47:625][  0]LogConfig: Setting CVar [[r.DOF.Scatter.MaxSpriteRatio:0.1         ; only a maximum of 10% of scattered bokeh]]
[2022.05.15-12.53.47:625][  0]LogConfig: Setting CVar [[r.DOF.Recombine.Quality:1                ; cheap slight out of focus]]
[2022.05.15-12.53.47:625][  0]LogConfig: Setting CVar [[r.DOF.Recombine.EnableBokehSettings:0    ; no bokeh simulation on slight out of focus]]
[2022.05.15-12.53.47:625][  0]LogConfig: Setting CVar [[r.DOF.TemporalAAQuality:1                ; more stable temporal accumulation]]
[2022.05.15-12.53.47:625][  0]LogConfig: Setting CVar [[r.DOF.Kernel.MaxForegroundRadius:0.025]]
[2022.05.15-12.53.47:625][  0]LogConfig: Setting CVar [[r.DOF.Kernel.MaxBackgroundRadius:0.025]]
[2022.05.15-12.53.47:625][  0]LogConfig: Applying CVar settings from Section [TextureQuality@3] File [D:/Projects/Snake/Saved/Config/Windows/Scalability.ini]
[2022.05.15-12.53.47:625][  0]LogConfig: Setting CVar [[r.Streaming.MipBias:0]]
[2022.05.15-12.53.47:625][  0]LogConfig: Setting CVar [[r.Streaming.AmortizeCPUToGPUCopy:0]]
[2022.05.15-12.53.47:625][  0]LogConfig: Setting CVar [[r.Streaming.MaxNumTexturesToStreamPerFrame:0]]
[2022.05.15-12.53.47:625][  0]LogConfig: Setting CVar [[r.Streaming.Boost:1]]
[2022.05.15-12.53.47:625][  0]LogConfig: Setting CVar [[r.MaxAnisotropy:8]]
[2022.05.15-12.53.47:625][  0]LogConfig: Setting CVar [[r.VT.MaxAnisotropy:8]]
[2022.05.15-12.53.47:626][  0]LogConfig: Setting CVar [[r.Streaming.LimitPoolSizeToVRAM:0]]
[2022.05.15-12.53.47:626][  0]LogConfig: Setting CVar [[r.Streaming.PoolSize:1000]]
[2022.05.15-12.53.47:626][  0]LogConfig: Setting CVar [[r.Streaming.MaxEffectiveScreenSize:0]]
[2022.05.15-12.53.47:626][  0]LogConfig: Applying CVar settings from Section [EffectsQuality@3] File [D:/Projects/Snake/Saved/Config/Windows/Scalability.ini]
[2022.05.15-12.53.47:626][  0]LogConfig: Setting CVar [[r.TranslucencyLightingVolumeDim:64]]
[2022.05.15-12.53.47:626][  0]LogConfig: Setting CVar [[r.RefractionQuality:2]]
[2022.05.15-12.53.47:626][  0]LogConfig: Setting CVar [[r.SSR.Quality:3]]
[2022.05.15-12.53.47:626][  0]LogConfig: Setting CVar [[r.SSR.HalfResSceneColor:0]]
[2022.05.15-12.53.47:626][  0]LogConfig: Setting CVar [[r.SceneColorFormat:4]]
[2022.05.15-12.53.47:626][  0]LogConfig: Setting CVar [[r.DetailMode:2]]
[2022.05.15-12.53.47:626][  0]LogConfig: Setting CVar [[r.TranslucencyVolumeBlur:1]]
[2022.05.15-12.53.47:626][  0]LogConfig: Setting CVar [[r.MaterialQualityLevel:1 ; High quality]]
[2022.05.15-12.53.47:626][  0]LogConfig: Setting CVar [[r.AnisotropicMaterials:1]]
[2022.05.15-12.53.47:626][  0]LogConfig: Setting CVar [[r.SSS.Scale:1]]
[2022.05.15-12.53.47:626][  0]LogConfig: Setting CVar [[r.SSS.SampleSet:2]]
[2022.05.15-12.53.47:626][  0]LogConfig: Setting CVar [[r.SSS.Quality:1]]
[2022.05.15-12.53.47:626][  0]LogConfig: Setting CVar [[r.SSS.HalfRes:0]]
[2022.05.15-12.53.47:626][  0]LogConfig: Setting CVar [[r.SSGI.Quality:3]]
[2022.05.15-12.53.47:626][  0]LogConfig: Setting CVar [[r.EmitterSpawnRateScale:1.0]]
[2022.05.15-12.53.47:626][  0]LogConfig: Setting CVar [[r.ParticleLightQuality:2]]
[2022.05.15-12.53.47:626][  0]LogConfig: Setting CVar [[r.SkyAtmosphere.AerialPerspectiveLUT.FastApplyOnOpaque:1 ; Always have FastSkyLUT 1 in this case to avoid wrong sky]]
[2022.05.15-12.53.47:626][  0]LogConfig: Setting CVar [[r.SkyAtmosphere.AerialPerspectiveLUT.SampleCountMaxPerSlice:4]]
[2022.05.15-12.53.47:626][  0]LogConfig: Setting CVar [[r.SkyAtmosphere.AerialPerspectiveLUT.DepthResolution:16.0]]
[2022.05.15-12.53.47:626][  0]LogConfig: Setting CVar [[r.SkyAtmosphere.FastSkyLUT:1]]
[2022.05.15-12.53.47:626][  0]LogConfig: Setting CVar [[r.SkyAtmosphere.FastSkyLUT.SampleCountMin:4.0]]
[2022.05.15-12.53.47:626][  0]LogConfig: Setting CVar [[r.SkyAtmosphere.FastSkyLUT.SampleCountMax:128.0]]
[2022.05.15-12.53.47:626][  0]LogConfig: Setting CVar [[r.SkyAtmosphere.SampleCountMin:4.0]]
[2022.05.15-12.53.47:626][  0]LogConfig: Setting CVar [[r.SkyAtmosphere.SampleCountMax:128.0]]
[2022.05.15-12.53.47:626][  0]LogConfig: Setting CVar [[r.SkyAtmosphere.TransmittanceLUT.UseSmallFormat:0]]
[2022.05.15-12.53.47:626][  0]LogConfig: Setting CVar [[r.SkyAtmosphere.TransmittanceLUT.SampleCount:10.0]]
[2022.05.15-12.53.47:626][  0]LogConfig: Setting CVar [[r.SkyAtmosphere.MultiScatteringLUT.SampleCount:15.0]]
[2022.05.15-12.53.47:626][  0]LogConfig: Setting CVar [[r.SkyLight.RealTimeReflectionCapture:1]]
[2022.05.15-12.53.47:626][  0]LogConfig: Applying CVar settings from Section [FoliageQuality@3] File [D:/Projects/Snake/Saved/Config/Windows/Scalability.ini]
[2022.05.15-12.53.47:626][  0]LogConfig: Setting CVar [[foliage.DensityScale:1.0]]
[2022.05.15-12.53.47:626][  0]LogConfig: Setting CVar [[grass.DensityScale:1.0]]
[2022.05.15-12.53.47:626][  0]LogConfig: Applying CVar settings from Section [ShadingQuality@3] File [D:/Projects/Snake/Saved/Config/Windows/Scalability.ini]
[2022.05.15-12.53.47:626][  0]LogConfig: Setting CVar [[r.HairStrands.SkyLighting.IntegrationType:2]]
[2022.05.15-12.53.47:626][  0]LogConfig: Setting CVar [[r.HairStrands.SkyAO.SampleCount:4]]
[2022.05.15-12.53.47:626][  0]LogConfig: Setting CVar [[r.HairStrands.Visibility.MSAA.SamplePerPixel:4]]
[2022.05.15-12.53.47:626][  0]LogInit: Selected Device Profile: [Windows]
[2022.05.15-12.53.47:626][  0]LogInit: Applying CVar settings loaded from the selected device profile: [Windows]
[2022.05.15-12.53.47:626][  0]LogHAL: Display: Platform has ~ 32 GB [34279759872 / 34359738368 / 32], which maps to Largest [LargestMinGB=32, LargerMinGB=12, DefaultMinGB=8, SmallerMinGB=6, SmallestMinGB=0)
[2022.05.15-12.53.47:626][  0]LogInit: Going up to parent DeviceProfile []
[2022.05.15-12.53.47:626][  0]LogConfig: Applying CVar settings from Section [ViewDistanceQuality@3] File [D:/Projects/Snake/Saved/Config/Windows/Scalability.ini]
[2022.05.15-12.53.47:626][  0]LogConfig: Setting CVar [[r.SkeletalMeshLODBias:0]]
[2022.05.15-12.53.47:626][  0]LogConfig: Setting CVar [[r.ViewDistanceScale:1.0]]
[2022.05.15-12.53.47:626][  0]LogConfig: Applying CVar settings from Section [AntiAliasingQuality@3] File [D:/Projects/Snake/Saved/Config/Windows/Scalability.ini]
[2022.05.15-12.53.47:626][  0]LogConfig: Setting CVar [[r.PostProcessAAQuality:4]]
[2022.05.15-12.53.47:626][  0]LogConfig: Applying CVar settings from Section [ShadowQuality@3] File [D:/Projects/Snake/Saved/Config/Windows/Scalability.ini]
[2022.05.15-12.53.47:626][  0]LogConfig: Setting CVar [[r.LightFunctionQuality:1]]
[2022.05.15-12.53.47:626][  0]LogConfig: Setting CVar [[r.ShadowQuality:5]]
[2022.05.15-12.53.47:626][  0]LogConfig: Setting CVar [[r.Shadow.CSM.MaxCascades:10]]
[2022.05.15-12.53.47:626][  0]LogConfig: Setting CVar [[r.Shadow.MaxResolution:2048]]
[2022.05.15-12.53.47:626][  0]LogConfig: Setting CVar [[r.Shadow.MaxCSMResolution:2048]]
[2022.05.15-12.53.47:626][  0]LogConfig: Setting CVar [[r.Shadow.RadiusThreshold:0.01]]
[2022.05.15-12.53.47:626][  0]LogConfig: Setting CVar [[r.Shadow.DistanceScale:1.0]]
[2022.05.15-12.53.47:626][  0]LogConfig: Setting CVar [[r.Shadow.CSM.TransitionScale:1.0]]
[2022.05.15-12.53.47:626][  0]LogConfig: Setting CVar [[r.Shadow.PreShadowResolutionFactor:1.0]]
[2022.05.15-12.53.47:626][  0]LogConfig: Setting CVar [[r.DistanceFieldShadowing:1]]
[2022.05.15-12.53.47:626][  0]LogConfig: Setting CVar [[r.DistanceFieldAO:1]]
[2022.05.15-12.53.47:626][  0]LogConfig: Setting CVar [[r.AOQuality:2]]
[2022.05.15-12.53.47:626][  0]LogConfig: Setting CVar [[r.VolumetricFog:1]]
[2022.05.15-12.53.47:626][  0]LogConfig: Setting CVar [[r.VolumetricFog.GridPixelSize:8]]
[2022.05.15-12.53.47:626][  0]LogConfig: Setting CVar [[r.VolumetricFog.GridSizeZ:128]]
[2022.05.15-12.53.47:626][  0]LogConfig: Setting CVar [[r.VolumetricFog.HistoryMissSupersampleCount:4]]
[2022.05.15-12.53.47:626][  0]LogConfig: Setting CVar [[r.LightMaxDrawDistanceScale:1]]
[2022.05.15-12.53.47:626][  0]LogConfig: Setting CVar [[r.CapsuleShadows:1]]
[2022.05.15-12.53.47:626][  0]LogConfig: Applying CVar settings from Section [PostProcessQuality@3] File [D:/Projects/Snake/Saved/Config/Windows/Scalability.ini]
[2022.05.15-12.53.47:626][  0]LogConfig: Setting CVar [[r.MotionBlurQuality:4]]
[2022.05.15-12.53.47:626][  0]LogConfig: Setting CVar [[r.AmbientOcclusionMipLevelFactor:0.4]]
[2022.05.15-12.53.47:626][  0]LogConfig: Setting CVar [[r.AmbientOcclusionMaxQuality:100]]
[2022.05.15-12.53.47:626][  0]LogConfig: Setting CVar [[r.AmbientOcclusionLevels:-1]]
[2022.05.15-12.53.47:626][  0]LogConfig: Setting CVar [[r.AmbientOcclusionRadiusScale:1.0]]
[2022.05.15-12.53.47:626][  0]LogConfig: Setting CVar [[r.DepthOfFieldQuality:2]]
[2022.05.15-12.53.47:626][  0]LogConfig: Setting CVar [[r.RenderTargetPoolMin:400]]
[2022.05.15-12.53.47:626][  0]LogConfig: Setting CVar [[r.LensFlareQuality:2]]
[2022.05.15-12.53.47:626][  0]LogConfig: Setting CVar [[r.SceneColorFringeQuality:1]]
[2022.05.15-12.53.47:626][  0]LogConfig: Setting CVar [[r.EyeAdaptationQuality:2]]
[2022.05.15-12.53.47:626][  0]LogConfig: Setting CVar [[r.BloomQuality:5]]
[2022.05.15-12.53.47:626][  0]LogConfig: Setting CVar [[r.FastBlurThreshold:100]]
[2022.05.15-12.53.47:626][  0]LogConfig: Setting CVar [[r.Upscale.Quality:3]]
[2022.05.15-12.53.47:626][  0]LogConfig: Setting CVar [[r.Tonemapper.GrainQuantization:1]]
[2022.05.15-12.53.47:626][  0]LogConfig: Setting CVar [[r.LightShaftQuality:1]]
[2022.05.15-12.53.47:626][  0]LogConfig: Setting CVar [[r.Filter.SizeScale:1]]
[2022.05.15-12.53.47:626][  0]LogConfig: Setting CVar [[r.Tonemapper.Quality:5]]
[2022.05.15-12.53.47:626][  0]LogConfig: Setting CVar [[r.DOF.Gather.AccumulatorQuality:1        ; higher gathering accumulator quality]]
[2022.05.15-12.53.47:626][  0]LogConfig: Setting CVar [[r.DOF.Gather.PostfilterMethod:1          ; Median3x3 postfilering method]]
[2022.05.15-12.53.47:626][  0]LogConfig: Setting CVar [[r.DOF.Gather.EnableBokehSettings:0       ; no bokeh simulation when gathering]]
[2022.05.15-12.53.47:626][  0]LogConfig: Setting CVar [[r.DOF.Gather.RingCount:4                 ; medium number of samples when gathering]]
[2022.05.15-12.53.47:626][  0]LogConfig: Setting CVar [[r.DOF.Scatter.ForegroundCompositing:1    ; additive foreground scattering]]
[2022.05.15-12.53.47:626][  0]LogConfig: Setting CVar [[r.DOF.Scatter.BackgroundCompositing:2    ; additive background scattering]]
[2022.05.15-12.53.47:626][  0]LogConfig: Setting CVar [[r.DOF.Scatter.EnableBokehSettings:1      ; bokeh simulation when scattering]]
[2022.05.15-12.53.47:626][  0]LogConfig: Setting CVar [[r.DOF.Scatter.MaxSpriteRatio:0.1         ; only a maximum of 10% of scattered bokeh]]
[2022.05.15-12.53.47:626][  0]LogConfig: Setting CVar [[r.DOF.Recombine.Quality:1                ; cheap slight out of focus]]
[2022.05.15-12.53.47:626][  0]LogConfig: Setting CVar [[r.DOF.Recombine.EnableBokehSettings:0    ; no bokeh simulation on slight out of focus]]
[2022.05.15-12.53.47:626][  0]LogConfig: Setting CVar [[r.DOF.TemporalAAQuality:1                ; more stable temporal accumulation]]
[2022.05.15-12.53.47:626][  0]LogConfig: Setting CVar [[r.DOF.Kernel.MaxForegroundRadius:0.025]]
[2022.05.15-12.53.47:626][  0]LogConfig: Setting CVar [[r.DOF.Kernel.MaxBackgroundRadius:0.025]]
[2022.05.15-12.53.47:626][  0]LogConfig: Applying CVar settings from Section [TextureQuality@Cine] File [D:/Projects/Snake/Saved/Config/Windows/Scalability.ini]
[2022.05.15-12.53.47:626][  0]LogConfig: Setting CVar [[r.Streaming.MipBias:0]]
[2022.05.15-12.53.47:626][  0]LogConfig: Setting CVar [[r.Streaming.AmortizeCPUToGPUCopy:0]]
[2022.05.15-12.53.47:626][  0]LogConfig: Setting CVar [[r.Streaming.MaxNumTexturesToStreamPerFrame:0]]
[2022.05.15-12.53.47:626][  0]LogConfig: Setting CVar [[r.Streaming.Boost:1]]
[2022.05.15-12.53.47:626][  0]LogConfig: Setting CVar [[r.MaxAnisotropy:8]]
[2022.05.15-12.53.47:626][  0]LogConfig: Setting CVar [[r.VT.MaxAnisotropy:8]]
[2022.05.15-12.53.47:626][  0]LogConfig: Setting CVar [[r.Streaming.LimitPoolSizeToVRAM:0]]
[2022.05.15-12.53.47:626][  0]LogConfig: Setting CVar [[r.Streaming.PoolSize:3000]]
[2022.05.15-12.53.47:626][  0]LogConfig: Setting CVar [[r.Streaming.MaxEffectiveScreenSize:0]]
[2022.05.15-12.53.47:626][  0]LogConfig: Applying CVar settings from Section [EffectsQuality@3] File [D:/Projects/Snake/Saved/Config/Windows/Scalability.ini]
[2022.05.15-12.53.47:626][  0]LogConfig: Setting CVar [[r.TranslucencyLightingVolumeDim:64]]
[2022.05.15-12.53.47:626][  0]LogConfig: Setting CVar [[r.RefractionQuality:2]]
[2022.05.15-12.53.47:626][  0]LogConfig: Setting CVar [[r.SSR.Quality:3]]
[2022.05.15-12.53.47:626][  0]LogConfig: Setting CVar [[r.SSR.HalfResSceneColor:0]]
[2022.05.15-12.53.47:626][  0]LogConfig: Setting CVar [[r.SceneColorFormat:4]]
[2022.05.15-12.53.47:626][  0]LogConfig: Setting CVar [[r.DetailMode:2]]
[2022.05.15-12.53.47:626][  0]LogConfig: Setting CVar [[r.TranslucencyVolumeBlur:1]]
[2022.05.15-12.53.47:626][  0]LogConfig: Setting CVar [[r.MaterialQualityLevel:1 ; High quality]]
[2022.05.15-12.53.47:626][  0]LogConfig: Setting CVar [[r.AnisotropicMaterials:1]]
[2022.05.15-12.53.47:626][  0]LogConfig: Setting CVar [[r.SSS.Scale:1]]
[2022.05.15-12.53.47:626][  0]LogConfig: Setting CVar [[r.SSS.SampleSet:2]]
[2022.05.15-12.53.47:626][  0]LogConfig: Setting CVar [[r.SSS.Quality:1]]
[2022.05.15-12.53.47:626][  0]LogConfig: Setting CVar [[r.SSS.HalfRes:0]]
[2022.05.15-12.53.47:626][  0]LogConfig: Setting CVar [[r.SSGI.Quality:3]]
[2022.05.15-12.53.47:626][  0]LogConfig: Setting CVar [[r.EmitterSpawnRateScale:1.0]]
[2022.05.15-12.53.47:626][  0]LogConfig: Setting CVar [[r.ParticleLightQuality:2]]
[2022.05.15-12.53.47:626][  0]LogConfig: Setting CVar [[r.SkyAtmosphere.AerialPerspectiveLUT.FastApplyOnOpaque:1 ; Always have FastSkyLUT 1 in this case to avoid wrong sky]]
[2022.05.15-12.53.47:626][  0]LogConfig: Setting CVar [[r.SkyAtmosphere.AerialPerspectiveLUT.SampleCountMaxPerSlice:4]]
[2022.05.15-12.53.47:626][  0]LogConfig: Setting CVar [[r.SkyAtmosphere.AerialPerspectiveLUT.DepthResolution:16.0]]
[2022.05.15-12.53.47:626][  0]LogConfig: Setting CVar [[r.SkyAtmosphere.FastSkyLUT:1]]
[2022.05.15-12.53.47:626][  0]LogConfig: Setting CVar [[r.SkyAtmosphere.FastSkyLUT.SampleCountMin:4.0]]
[2022.05.15-12.53.47:626][  0]LogConfig: Setting CVar [[r.SkyAtmosphere.FastSkyLUT.SampleCountMax:128.0]]
[2022.05.15-12.53.47:626][  0]LogConfig: Setting CVar [[r.SkyAtmosphere.SampleCountMin:4.0]]
[2022.05.15-12.53.47:626][  0]LogConfig: Setting CVar [[r.SkyAtmosphere.SampleCountMax:128.0]]
[2022.05.15-12.53.47:626][  0]LogConfig: Setting CVar [[r.SkyAtmosphere.TransmittanceLUT.UseSmallFormat:0]]
[2022.05.15-12.53.47:626][  0]LogConfig: Setting CVar [[r.SkyAtmosphere.TransmittanceLUT.SampleCount:10.0]]
[2022.05.15-12.53.47:626][  0]LogConfig: Setting CVar [[r.SkyAtmosphere.MultiScatteringLUT.SampleCount:15.0]]
[2022.05.15-12.53.47:626][  0]LogConfig: Setting CVar [[r.SkyLight.RealTimeReflectionCapture:1]]
[2022.05.15-12.53.47:626][  0]LogConfig: Applying CVar settings from Section [FoliageQuality@3] File [D:/Projects/Snake/Saved/Config/Windows/Scalability.ini]
[2022.05.15-12.53.47:627][  0]LogConfig: Setting CVar [[foliage.DensityScale:1.0]]
[2022.05.15-12.53.47:627][  0]LogConfig: Setting CVar [[grass.DensityScale:1.0]]
[2022.05.15-12.53.47:627][  0]LogConfig: Applying CVar settings from Section [ShadingQuality@3] File [D:/Projects/Snake/Saved/Config/Windows/Scalability.ini]
[2022.05.15-12.53.47:627][  0]LogConfig: Setting CVar [[r.HairStrands.SkyLighting.IntegrationType:2]]
[2022.05.15-12.53.47:627][  0]LogConfig: Setting CVar [[r.HairStrands.SkyAO.SampleCount:4]]
[2022.05.15-12.53.47:627][  0]LogConfig: Setting CVar [[r.HairStrands.Visibility.MSAA.SamplePerPixel:4]]
[2022.05.15-12.53.47:627][  0]LogConfig: Applying CVar settings from Section [Startup] File [../../../Engine/Config/ConsoleVariables.ini]
[2022.05.15-12.53.47:627][  0]LogConfig: Setting CVar [[net.UseAdaptiveNetUpdateFrequency:0]]
[2022.05.15-12.53.47:627][  0]LogConfig: Setting CVar [[p.chaos.AllowCreatePhysxBodies:1]]
[2022.05.15-12.53.47:627][  0]LogConfig: Setting CVar [[fx.SkipVectorVMBackendOptimizations:1]]
[2022.05.15-12.53.47:627][  0]LogConfig: Applying CVar settings from Section [ConsoleVariables] File [D:/Projects/Snake/Saved/Config/Windows/Engine.ini]
[2022.05.15-12.53.47:627][  0]LogConfig: Applying CVar settings from Section [ConsoleVariables] File [D:/Projects/Snake/Saved/Config/Windows/Editor.ini]
[2022.05.15-12.53.47:627][  0]LogInit: Computer: DARK-PC
[2022.05.15-12.53.47:627][  0]LogInit: User: Кир
[2022.05.15-12.53.47:627][  0]LogInit: CPU Page size=4096, Cores=12
[2022.05.15-12.53.47:627][  0]LogInit: High frequency timer resolution =10.000000 MHz
[2022.05.15-12.53.47:627][  0]LogMemory: Memory total: Physical=31.9GB (32GB approx)
[2022.05.15-12.53.47:627][  0]LogMemory: Platform Memory Stats for Windows
[2022.05.15-12.53.47:627][  0]LogMemory: Process Physical Memory: 152.98 MB used, 152.98 MB peak
[2022.05.15-12.53.47:627][  0]LogMemory: Process Virtual Memory: 134.67 MB used, 134.67 MB peak
[2022.05.15-12.53.47:627][  0]LogMemory: Physical Memory: 12450.18 MB used,  20241.54 MB free, 32691.73 MB total
[2022.05.15-12.53.47:627][  0]LogMemory: Virtual Memory: 134172296.00 MB used,  45429.70 MB free, 134217728.00 MB total
[2022.05.15-12.53.47:631][  0]LogWindows: WindowsPlatformFeatures enabled
[2022.05.15-12.53.47:654][  0]LogInit: Physics initialised using underlying interface: PhysX
[2022.05.15-12.53.47:655][  0]LogInit: Using OS detected language (ru-RU).
[2022.05.15-12.53.47:655][  0]LogInit: Using OS detected locale (ru-RU).
[2022.05.15-12.53.47:656][  0]LogTextLocalizationManager: No specific localization for 'ru-RU' exists, so the 'ru' localization will be used.
[2022.05.15-12.53.47:656][  0]LogTextLocalizationResource: LocRes '../../../Engine/Content/Localization/Editor/ru/Editor.locres' could not be opened for reading!
[2022.05.15-12.53.47:656][  0]LogTextLocalizationResource: LocRes '../../../Engine/Content/Localization/EditorTutorials/ru/EditorTutorials.locres' could not be opened for reading!
[2022.05.15-12.53.47:656][  0]LogTextLocalizationResource: LocRes '../../../Engine/Content/Localization/Keywords/ru/Keywords.locres' could not be opened for reading!
[2022.05.15-12.53.47:656][  0]LogTextLocalizationResource: LocRes '../../../Engine/Content/Localization/Category/ru/Category.locres' could not be opened for reading!
[2022.05.15-12.53.47:656][  0]LogTextLocalizationResource: LocRes '../../../Engine/Content/Localization/ToolTips/ru/ToolTips.locres' could not be opened for reading!
[2022.05.15-12.53.47:656][  0]LogTextLocalizationResource: LocRes '../../../Engine/Content/Localization/PropertyNames/ru/PropertyNames.locres' could not be opened for reading!
[2022.05.15-12.53.47:656][  0]LogTextLocalizationResource: LocRes '../../../Engine/Content/Localization/Engine/ru/Engine.locres' could not be opened for reading!
[2022.05.15-12.53.47:656][  0]LogInit: Setting process to per monitor DPI aware
[2022.05.15-12.53.47:663][  0]LogWindowsTextInputMethodSystem: Display: IME system deactivated.
[2022.05.15-12.53.47:671][  0]LogSlate: New Slate User Created.  User Index 0, Is Virtual User: 0
[2022.05.15-12.53.47:671][  0]LogSlate: Slate User Registered.  User Index 0, Is Virtual User: 0
[2022.05.15-12.53.47:745][  0]LogD3D11RHI: Loaded GFSDK_Aftermath_Lib.x64.dll
[2022.05.15-12.53.47:748][  0]LogHMD: Failed to initialize OpenVR with code 110
[2022.05.15-12.53.47:748][  0]LogD3D11RHI: D3D11 min allowed feature level: 11_0
[2022.05.15-12.53.47:748][  0]LogD3D11RHI: D3D11 max allowed feature level: 11_0
[2022.05.15-12.53.47:748][  0]LogD3D11RHI: D3D11 adapters:
[2022.05.15-12.53.47:812][  0]LogD3D11RHI:    0. 'NVIDIA GeForce GTX 1070' (Feature Level 11_0)
[2022.05.15-12.53.47:812][  0]LogD3D11RHI:       8088/0/16345 MB DedicatedVideo/DedicatedSystem/SharedSystem, Outputs:3, VendorId:0x10de
[2022.05.15-12.53.47:813][  0]LogD3D11RHI:    1. 'Microsoft Basic Render Driver' (Feature Level 11_0)
[2022.05.15-12.53.47:813][  0]LogD3D11RHI:       0/0/16345 MB DedicatedVideo/DedicatedSystem/SharedSystem, Outputs:0, VendorId:0x1414
[2022.05.15-12.53.47:813][  0]LogD3D11RHI: Chosen D3D11 Adapter:
[2022.05.15-12.53.47:813][  0]LogD3D11RHI:     Description : NVIDIA GeForce GTX 1070
[2022.05.15-12.53.47:813][  0]LogD3D11RHI:     VendorId    : 10de
[2022.05.15-12.53.47:813][  0]LogD3D11RHI:     DeviceId    : 1b81
[2022.05.15-12.53.47:813][  0]LogD3D11RHI:     SubSysId    : 37031458
[2022.05.15-12.53.47:813][  0]LogD3D11RHI:     Revision    : 00a1
[2022.05.15-12.53.47:813][  0]LogD3D11RHI:     DedicatedVideoMemory : 8480882688 bytes
[2022.05.15-12.53.47:813][  0]LogD3D11RHI:     DedicatedSystemMemory : 0 bytes
[2022.05.15-12.53.47:813][  0]LogD3D11RHI:     SharedSystemMemory : 17139879936 bytes
[2022.05.15-12.53.47:813][  0]LogD3D11RHI:     AdapterLuid : 0 73165
[2022.05.15-12.53.47:820][  0]LogD3D11RHI: Creating new Direct3DDevice
[2022.05.15-12.53.47:820][  0]LogD3D11RHI:     GPU DeviceId: 0x1b81 (for the marketing name, search the web for "GPU Device Id")
[2022.05.15-12.53.47:820][  0]LogWindows: EnumDisplayDevices:
[2022.05.15-12.53.47:820][  0]LogWindows:    0. 'NVIDIA GeForce GTX 1070' (P:1 D:1)
[2022.05.15-12.53.47:820][  0]LogWindows:    1. 'NVIDIA GeForce GTX 1070' (P:0 D:1)
[2022.05.15-12.53.47:820][  0]LogWindows:    2. 'NVIDIA GeForce GTX 1070' (P:0 D:1)
[2022.05.15-12.53.47:821][  0]LogWindows:    3. 'NVIDIA GeForce GTX 1070' (P:0 D:0)
[2022.05.15-12.53.47:821][  0]LogWindows: DebugString: FoundDriverCount:4 
[2022.05.15-12.53.47:821][  0]LogD3D11RHI:     Adapter Name: NVIDIA GeForce GTX 1070
[2022.05.15-12.53.47:821][  0]LogD3D11RHI:   Driver Version: 472.12 (internal:30.0.14.7212, unified:472.12)
[2022.05.15-12.53.47:821][  0]LogD3D11RHI:      Driver Date: 9-13-2021
[2022.05.15-12.53.47:821][  0]LogRHI: Texture pool is 5661 MB (70% of 8088 MB)
[2022.05.15-12.53.47:821][  0]LogD3D11RHI: Creating D3DDevice using adapter:
[2022.05.15-12.53.47:821][  0]LogD3D11RHI:     Description : NVIDIA GeForce GTX 1070
[2022.05.15-12.53.47:821][  0]LogD3D11RHI:     VendorId    : 10de
[2022.05.15-12.53.47:821][  0]LogD3D11RHI:     DeviceId    : 1b81
[2022.05.15-12.53.47:821][  0]LogD3D11RHI:     SubSysId    : 37031458
[2022.05.15-12.53.47:821][  0]LogD3D11RHI:     Revision    : 00a1
[2022.05.15-12.53.47:821][  0]LogD3D11RHI:     DedicatedVideoMemory : 8480882688 bytes
[2022.05.15-12.53.47:821][  0]LogD3D11RHI:     DedicatedSystemMemory : 0 bytes
[2022.05.15-12.53.47:821][  0]LogD3D11RHI:     SharedSystemMemory : 17139879936 bytes
[2022.05.15-12.53.47:821][  0]LogD3D11RHI:     AdapterLuid : 0 73165
[2022.05.15-12.53.47:862][  0]LogD3D11RHI: RHI has support for 64 bit atomics
[2022.05.15-12.53.47:862][  0]LogD3D11RHI: Async texture creation enabled
[2022.05.15-12.53.47:862][  0]LogD3D11RHI: Array index from any shader is supported
[2022.05.15-12.53.47:885][  0]LogD3D11RHI: GPU Timing Frequency: 1000.000000 (Debug: 2 1)
[2022.05.15-12.53.47:902][  0]LogRHI: GeForceNow SDK initialized: 1
[2022.05.15-12.53.48:088][  0]LogTargetPlatformManager: Display: Loaded TargetPlatform 'AllDesktop'
[2022.05.15-12.53.48:103][  0]LogTargetPlatformManager: Display: Loaded TargetPlatform 'Android'
[2022.05.15-12.53.48:103][  0]LogTargetPlatformManager: Display: Loaded TargetPlatform 'Android_ASTC'
[2022.05.15-12.53.48:103][  0]LogTargetPlatformManager: Display: Loaded TargetPlatform 'Android_DXT'
[2022.05.15-12.53.48:103][  0]LogTargetPlatformManager: Display: Loaded TargetPlatform 'Android_ETC2'
[2022.05.15-12.53.48:103][  0]LogTargetPlatformManager: Display: Loaded TargetPlatform 'AndroidClient'
[2022.05.15-12.53.48:103][  0]LogTargetPlatformManager: Display: Loaded TargetPlatform 'Android_ASTCClient'
[2022.05.15-12.53.48:103][  0]LogTargetPlatformManager: Display: Loaded TargetPlatform 'Android_DXTClient'
[2022.05.15-12.53.48:103][  0]LogTargetPlatformManager: Display: Loaded TargetPlatform 'Android_ETC2Client'
[2022.05.15-12.53.48:103][  0]LogTargetPlatformManager: Display: Loaded TargetPlatform 'Android_Multi'
[2022.05.15-12.53.48:103][  0]LogTargetPlatformManager: Display: Loaded TargetPlatform 'Android_MultiClient'
[2022.05.15-12.53.48:116][  0]LogTargetPlatformManager: Display: Loaded TargetPlatform 'IOSClient'
[2022.05.15-12.53.48:116][  0]LogTargetPlatformManager: Display: Loaded TargetPlatform 'IOS'
[2022.05.15-12.53.48:121][  0]LogTargetPlatformManager: Display: Loaded TargetPlatform 'Linux'
[2022.05.15-12.53.48:125][  0]LogTargetPlatformManager: Display: Loaded TargetPlatform 'LinuxNoEditor'
[2022.05.15-12.53.48:128][  0]LogTargetPlatformManager: Display: Loaded TargetPlatform 'LinuxClient'
[2022.05.15-12.53.48:131][  0]LogTargetPlatformManager: Display: Loaded TargetPlatform 'LinuxServer'
[2022.05.15-12.53.48:137][  0]LogTargetPlatformManager: Display: Loaded TargetPlatform 'LinuxAArch64NoEditor'
[2022.05.15-12.53.48:140][  0]LogTargetPlatformManager: Display: Loaded TargetPlatform 'LinuxAArch64Client'
[2022.05.15-12.53.48:143][  0]LogTargetPlatformManager: Display: Loaded TargetPlatform 'LinuxAArch64Server'
[2022.05.15-12.53.48:158][  0]LogTargetPlatformManager: Display: Loaded TargetPlatform 'Lumin'
[2022.05.15-12.53.48:158][  0]LogTargetPlatformManager: Display: Loaded TargetPlatform 'LuminClient'
[2022.05.15-12.53.48:163][  0]LogTargetPlatformManager: Display: Loaded TargetPlatform 'MacNoEditor'
[2022.05.15-12.53.48:166][  0]LogTargetPlatformManager: Display: Loaded TargetPlatform 'Mac'
[2022.05.15-12.53.48:169][  0]LogTargetPlatformManager: Display: Loaded TargetPlatform 'MacClient'
[2022.05.15-12.53.48:173][  0]LogTargetPlatformManager: Display: Loaded TargetPlatform 'MacServer'
[2022.05.15-12.53.48:179][  0]LogTargetPlatformManager: Display: Loaded TargetPlatform 'TVOSClient'
[2022.05.15-12.53.48:180][  0]LogTargetPlatformManager: Display: Loaded TargetPlatform 'TVOS'
[2022.05.15-12.53.48:185][  0]LogTargetPlatformManager: Display: Loaded TargetPlatform 'WindowsNoEditor'
[2022.05.15-12.53.48:188][  0]LogTargetPlatformManager: Display: Loaded TargetPlatform 'Windows'
[2022.05.15-12.53.48:191][  0]LogTargetPlatformManager: Display: Loaded TargetPlatform 'WindowsClient'
[2022.05.15-12.53.48:194][  0]LogTargetPlatformManager: Display: Loaded TargetPlatform 'WindowsServer'
[2022.05.15-12.53.48:194][  0]LogTargetPlatformManager: Display: Building Assets For Windows
[2022.05.15-12.53.48:199][  0]LogAudioDebug: Display: Lib vorbis DLL was dynamically loaded.
[2022.05.15-12.53.48:219][  0]LogTextureFormatOodle: Display: Oodle Texture 2.9.0 init RDO Off
[2022.05.15-12.53.48:241][  0]LogRendererCore: Ray tracing is disabled. Reason: r.RayTracing=0.
[2022.05.15-12.53.48:241][  0]LogShaderCompilers: Guid format shader working directory is 14 characters bigger than the processId version (../../../../../Projects/Snake/Intermediate/Shaders/WorkingDirectory/31956/).
[2022.05.15-12.53.48:241][  0]LogShaderCompilers: Cleaned the shader compiler working directory 'C:/Users/Kir/AppData/Local/Temp/UnrealShaderWorkingDir/BB1EE47E4A9693295317A0A62B6B0FF1/'.
[2022.05.15-12.53.48:241][  0]LogXGEController: Cannot use XGE Controller as Incredibuild is not installed on this machine.
[2022.05.15-12.53.48:241][  0]LogShaderCompilers: Cannot use XGE Shader Compiler as Incredibuild is not installed on this machine.
[2022.05.15-12.53.48:241][  0]LogShaderCompilers: Display: Using Local Shader Compiler.
[2022.05.15-12.53.48:739][  0]LogDerivedDataCache: Display: Max Cache Size: 512 MB
[2022.05.15-12.53.48:773][  0]LogDerivedDataCache: Loaded boot cache 0.03s 94MB C:/Users/Kir/AppData/Local/UnrealEngine/4.27/DerivedDataCache/Boot.ddc.
[2022.05.15-12.53.48:773][  0]LogDerivedDataCache: Display: Loaded Boot cache: C:/Users/Kir/AppData/Local/UnrealEngine/4.27/DerivedDataCache/Boot.ddc
[2022.05.15-12.53.48:773][  0]LogDerivedDataCache: FDerivedDataBackendGraph:  Pak pak cache file ../../../../../Projects/Snake/DerivedDataCache/DDC.ddp not found, will not use a pak cache.
[2022.05.15-12.53.48:773][  0]LogDerivedDataCache: Unable to find inner node Pak for hierarchical cache Hierarchy.
[2022.05.15-12.53.48:773][  0]LogDerivedDataCache: FDerivedDataBackendGraph:  CompressedPak pak cache file ../../../../../Projects/Snake/DerivedDataCache/Compressed.ddp not found, will not use a pak cache.
[2022.05.15-12.53.48:773][  0]LogDerivedDataCache: Unable to find inner node CompressedPak for hierarchical cache Hierarchy.
[2022.05.15-12.53.48:786][  0]LogDerivedDataCache: Display: Pak cache opened for reading ../../../Engine/DerivedDataCache/Compressed.ddp.
[2022.05.15-12.53.48:786][  0]LogDerivedDataCache: FDerivedDataBackendGraph:  EnterprisePak pak cache file ../../../Enterprise/DerivedDataCache/Compressed.ddp not found, will not use a pak cache.
[2022.05.15-12.53.48:786][  0]LogDerivedDataCache: Unable to find inner node EnterprisePak for hierarchical cache Hierarchy.
[2022.05.15-12.53.48:791][  0]LogDerivedDataCache: Speed tests for C:/Users/Kir/AppData/Local/UnrealEngine/Common/DerivedDataCache took 0.00 seconds
[2022.05.15-12.53.48:791][  0]LogDerivedDataCache: Display: Performance to C:/Users/Kir/AppData/Local/UnrealEngine/Common/DerivedDataCache: Latency=0.02ms. RandomReadSpeed=2045.07MBs, RandomWriteSpeed=243.69MBs. Assigned SpeedClass 'Local'
[2022.05.15-12.53.48:791][  0]LogDerivedDataCache: Using Local data cache path C:/Users/Kir/AppData/Local/UnrealEngine/Common/DerivedDataCache: Writable
[2022.05.15-12.53.48:791][  0]LogDerivedDataCache: Shared data cache path not found in *engine.ini, will not use an Shared cache.
[2022.05.15-12.53.48:791][  0]LogDerivedDataCache: Unable to find inner node Shared for hierarchical cache Hierarchy.
[2022.05.15-12.53.48:822][  0]LogSlate: Using FreeType 2.10.0
[2022.05.15-12.53.48:822][  0]LogSlate: SlateFontServices - WITH_FREETYPE: 1, WITH_HARFBUZZ: 1
[2022.05.15-12.53.48:838][  0]LogAssetRegistry: FAssetRegistry took 0.0019 seconds to start up
[2022.05.15-12.53.48:993][  0]LogInit: Selected Device Profile: [Windows]
[2022.05.15-12.53.48:993][  0]LogInit: Active device profile: [0000018729691600][00000187287E9480 49] Windows
[2022.05.15-12.53.48:993][  0]LogInit: Profiles: [0000018729691600][00000187287E9480 49] Windows, [0000018729614200][00000187287F1600 49] WindowsNoEditor, [0000018729627F00][00000187287F5780 49] WindowsServer, [0000018729614100][00000187287F9900 49] WindowsClient, [0000018729624300][00000187287FDA80 49] IOS, [0000018729616700][0000018728801C00 49] iPadAir, [0000018729626600][0000018728804200 49] iPadAir2, [00000187295D0F00][0000018728808440 49] IPadPro, [00000187295D1000][00000187287EC480 49] iPadAir3, [0000018729624200][000001872880C5C0 49] iPadAir4, [00000187295D0400][000001872887C700 49] iPadMini2, [0000018729627D00][0000018728896880 49] iPadMini3, [00000187295D1600][00000187288A2A00 49] iPadMini4, [0000018729624900][0000018729938B80 49] iPadMini5, [0000018729615300][0000018729A1EE40 49] iPhone6, [0000018729615400][000001872996CE80 49] iPodTouch6, [00000187295D3E00][00000187261F5140 49] iPhone7, [00000187295D3D00][0000018729A23180 49] iPodTouch7, [0000018729614E00][00000187261F9300 49] iPhone5S, [00000187295D0700][00000187262A7480 49] iPhone6Plus, [0000018729615B00][00000187262AB600 49] iPhone6S, [00000187295D3400][00000187262B3780 49] iPhone6SPlus, [0000018729616600][00000187262BB900 49] iPhone7Plus, [00000187295D2A00][00000187262BFA80 49] iPhoneSE, [0000018729615D00][00000187262C3C00 49] iPhone8, [00000187295D3100][00000187262C6200 49] iPhone8Plus, [0000018729617100][00000187262D2380 49] iPhoneX, [00000187295D1F00][00000187262DE500 49] iPhoneXS, [0000018729616000][0000018728892640 49] iPhoneXSMax, [00000187295D0900][00000187262E2780 49] iPhoneXR, [0000018729616C00][0000018729CAC8C0 49] iPhone11, [00000187295D2100][0000018729CB4A40 49] iPhone11Pro, [0000018729616500][0000018729CB8BC0 49] iPhone11ProMax, [00000187295D0D00][0000018729CBCD40 49] iPhoneSE2, [0000018729616E00][000001872626AEC0 49] iPhone12Mini, [00000187295D2500][000001872626F040 49] iPhone12, [0000018729615600][00000187262731C0 49] iPhone12Pro, [00000187295D3B00][0000018726277340 49] iPhone12ProMax, [0000018729614C00][000001872627B4C0 49] iPadPro105, [00000187295D0600][0000018729911640 49] iPadPro129, [0000018729617600][00000187299157C0 49] iPadPro97, [00000187295D2E00][0000018729919940 49] iPadPro2_129, [0000018729617A00][000001872991DAC0 49] iPad5, [00000187295D0100][00000187299200C0 49] iPad6, [0000018729617F00][00000187262A2240 49] iPad7, [00000187295D1B00][00000187299303C0 49] iPad8, [0000018729616900][0000018729934540 49] iPadPro11, [00000187295D3A00][0000018729B1C6C0 49] iPadPro2_11, [0000018729616A00][0000018729CB0800 49] iPadPro3_129, [00000187295D3700][0000018729B20940 49] iPadPro4_129, [0000018729614B00][0000018729B28A80 49] AppleTV, [00000187295D3800][0000018729B2CBC0 49] AppleTV4K, [0000018729615C00][0000018729B3ED40 49] TVOS, [00000187295D0A00][0000018729B42EC0 49] Mac, [0000018729614A00][0000018729B47040 49] MacClient, [00000187295D3200][0000018729B4B1C0 49] MacNoEditor, [0000018729614900][0000018729B4F340 49] MacServer, [00000187295D0800][0000018729B534C0 49] Linux, [0000018729615700][0000018729DC9640 49] LinuxAArch64, [00000187295D1A00][0000018729DE17C0 49] LinuxNoEditor, [0000018729614500][0000018729DE5940 49] LinuxAArch64NoEditor, [00000187295D1300][000001872625FAC0 49] LinuxClient, [0000018729614800][00000187262620C0 49] LinuxAArch64Client, [00000187295D2700][0000018726266240 49] LinuxServer, [0000018729617400][0000018729DF03C0 49] LinuxAArch64Server, [00000187295D2400][0000018729DF4540 49] Android, [0000018729616100][0000018729DFC6C0 49] Android_Low, [00000187295D3F00][000001872A09C840 49] Android_Mid, [0000018729617E00][0000018729B3A980 49] Android_High, [0000018729691400][000001872A0A0AC0 49] Android_Default, [0000018729626500][000001872A0A4C00 49] Android_Adreno4xx, [0000018729691800][000001872A0C6D40 49] Android_Adreno5xx_Low, [0000018729626800][0000018729EB6EC0 49] Android_Adreno5xx, [0000018729692C00][0000018729AC7040 49] Android_Adreno6xx, [0000018729625700][0000018729ACB1C0 49] Android_Adreno6xx_Vulkan, [0000018729691B00][0000018729DF9340 49] Android_Mali_T6xx, [0000018729624F00][0000018729DED4C0 49] Android_Mali_T7xx, [0000018729692200][0000018729ACF640 49] Android_Mali_T8xx, [0000018729626C00][0000018729DE97C0 49] Android_Mali_G71, [0000018729691100][0000018729AD3940 49] Android_Mali_G72, [0000018729626F00][0000018729AD7AC0 49] Android_Mali_G72_Vulkan, [0000018729691E00][0000018729ADA0C0 49] Android_Mali_G76, [0000018729627300][0000018729ADE240 49] Android_Mali_G76_Vulkan, [0000018729690400][0000018729AE23C0 49] Android_Mali_G77, [0000018729625D00][0000018729AE6540 49] Android_Mali_G77_Vulkan, [0000018729690900][0000018729AEA6C0 49] Android_Mali_G78, [0000018729626D00][0000018729AEE840 49] Android_Mali_G78_Vulkan, [0000018729692800][0000018729AF29C0 49] Android_Mali_G710, [0000018729624B00][0000018729AF6B40 49] Android_Mali_G710_Vulkan, [0000018729690200][000001872A0CAC80 49] Android_Vulkan_SM5, [0000018729624400][0000018729AFADC0 49] Android_PowerVR_G6xxx, [0000018729690700][0000018729AFEF00 49] Android_PowerVR_GT7xxx, [0000018729626B00][0000018729B07080 49] Android_PowerVR_GE8xxx, [0000018729690600][0000018729B0B200 49] Android_PowerVR_GM9xxx, [00000187295D2900][0000018729CD1380 49] Android_PowerVR_GM9xxx_Vulkan, [0000018729692600][0000018729CD5500 49] Android_TegraK1, [00000187295D0B00][0000018729CD9680 49] Android_Unknown_Vulkan, [0000018729692A00][0000018729CDD800 49] Lumin, [00000187295D3C00][0000018729CE1980 49] Lumin_Desktop, [0000018729692100][0000018729CE5B00 49] HoloLens, 
[2022.05.15-12.53.49:077][  0]LogMeshReduction: Using QuadricMeshReduction for automatic static mesh reduction
[2022.05.15-12.53.49:077][  0]LogMeshReduction: Using SimplygonMeshReduction for automatic skeletal mesh reduction
[2022.05.15-12.53.49:077][  0]LogMeshReduction: Using ProxyLODMeshReduction for automatic mesh merging
[2022.05.15-12.53.49:077][  0]LogMeshReduction: No distributed automatic mesh merging module available
[2022.05.15-12.53.49:077][  0]LogMeshMerging: No distributed automatic mesh merging module available
[2022.05.15-12.53.49:087][  0]LogNetVersion: Snake 1.0.0, NetCL: 17155196, EngineNetVer: 17, GameNetVer: 0 (Checksum: 56763789)
[2022.05.15-12.53.49:322][  0]LogTexture: Default maximum texture size for cubemaps generated from long-lat sources has been changed from 512 to unlimited. In order to preserve old behaiour for '/Engine/MapTemplates/Sky/DaylightAmbientCubemap.DaylightAmbientCubemap', its maximum texture size has been explicitly set to 512.
[2022.05.15-12.53.49:360][  0]LogHMD: PokeAHoleMaterial loaded successfully
[2022.05.15-12.53.49:365][  0]LogUObjectArray: 17180 objects as part of root set at end of initial load.
[2022.05.15-12.53.49:365][  0]LogUObjectAllocator: 4302784 out of 0 bytes used by permanent object pool.
[2022.05.15-12.53.49:365][  0]LogUObjectArray: CloseDisregardForGC: 0/0 objects in disregard for GC pool
[2022.05.15-12.53.49:533][  0]LogPython: Using Python 3.7.7
[2022.05.15-12.53.49:846][  0]LogNiagaraDebuggerClient: Niagara Debugger Client Initialized | Session: BB2ECE6D402C0E2B5DA3118CEB290BCA | Instance: FCDEF5F74F5F84E907D235A97A4DC229 (DARK-PC-31956).
[2022.05.15-12.53.49:947][  0]LogTcpMessaging: Initializing TcpMessaging bridge
[2022.05.15-12.53.49:950][  0]LogUdpMessaging: Initializing bridge on interface 0.0.0.0:0 to multicast group 230.0.0.1:6666.
[2022.05.15-12.53.50:063][  0]SourceControl: Source control is disabled
[2022.05.15-12.53.50:063][  0]SourceControl: Source control is disabled
[2022.05.15-12.53.50:068][  0]SourceControl: Source control is disabled
[2022.05.15-12.53.50:070][  0]SourceControl: Source control is disabled
[2022.05.15-12.53.50:076][  0]LogUProjectInfo: Found projects:
[2022.05.15-12.53.50:079][  0]SourceControl: Source control is disabled
[2022.05.15-12.53.50:163][  0]LogOpenImageDenoise: OIDN starting up
[2022.05.15-12.53.50:201][  0]LogAndroidPermission: UAndroidPermissionCallbackProxy::GetInstance
[2022.05.15-12.53.50:213][  0]LogAudioCaptureCore: Display: No Audio Capture implementations found. Audio input will be silent.
[2022.05.15-12.53.50:213][  0]LogAudioCaptureCore: Display: No Audio Capture implementations found. Audio input will be silent.
[2022.05.15-12.53.50:340][  0]LogOcInput: OculusInput pre-init called
[2022.05.15-12.53.50:451][  0]LogCollectionManager: Loaded 0 collections in 0.000457 seconds
[2022.05.15-12.53.50:494][  0]LogFileCache: Scanning file cache for directory 'D:/Projects/Snake/Saved/Collections/' took 0.00s
[2022.05.15-12.53.50:494][  0]LogFileCache: Scanning file cache for directory 'D:/Projects/Snake/Content/Developers/Кир/Collections/' took 0.00s
[2022.05.15-12.53.50:494][  0]LogFileCache: Scanning file cache for directory 'D:/Projects/Snake/Content/Collections/' took 0.00s
[2022.05.15-12.53.50:494][  0]LogEngine: Initializing Engine...
[2022.05.15-12.53.50:495][  0]LogHMD: Failed to enumerate extensions. Please check that you have a valid OpenXR runtime installed.
[2022.05.15-12.53.50:496][  0]LogHMD: Failed to initialize OpenVR with code 110
[2022.05.15-12.53.50:496][  0]LogMagicLeap: Warning: VR disabled because ZI is not enabled.  To enable, in the editor, Edit -> Project Settings -> Plugins -> Magic Leap Plugin -> Enable Zero Iteration
[2022.05.15-12.53.50:496][  0]LogStats: UGameplayTagsManager::InitializeManager -  0.000 s
[2022.05.15-12.53.50:568][  0]LogInit: Initializing FReadOnlyCVARCache
[2022.05.15-12.53.50:575][  0]LogAIModule: Creating AISystem for world Untitled
[2022.05.15-12.53.50:581][  0]LogAudio: Display: Initializing Audio Device Manager...
[2022.05.15-12.53.50:584][  0]LogAudio: Display: Loading Default Audio Settings Objects...
[2022.05.15-12.53.50:584][  0]LogAudio: Display: No default SoundConcurrencyObject specified (or failed to load).
[2022.05.15-12.53.50:584][  0]LogAudio: Display: Audio Device Manager Initialized
[2022.05.15-12.53.50:584][  0]LogAudio: Display: Creating Audio Device:                 Id: 1, Scope: Shared, Realtime: True
[2022.05.15-12.53.50:584][  0]LogAudioMixer: Display: Audio Mixer Platform Settings:
[2022.05.15-12.53.50:584][  0]LogAudioMixer: Display: 	Sample Rate:						  48000
[2022.05.15-12.53.50:584][  0]LogAudioMixer: Display: 	Callback Buffer Frame Size Requested: 1024
[2022.05.15-12.53.50:584][  0]LogAudioMixer: Display: 	Callback Buffer Frame Size To Use:	  1024
[2022.05.15-12.53.50:584][  0]LogAudioMixer: Display: 	Number of buffers to queue:			  2
[2022.05.15-12.53.50:584][  0]LogAudioMixer: Display: 	Max Channels (voices):				  32
[2022.05.15-12.53.50:584][  0]LogAudioMixer: Display: 	Number of Async Source Workers:		  0
[2022.05.15-12.53.50:584][  0]LogAudio: Display: AudioDevice MaxSources: 32
[2022.05.15-12.53.50:585][  0]LogAudio: Display: Audio Spatialization Plugin: None (built-in).
[2022.05.15-12.53.50:585][  0]LogAudio: Display: Audio Reverb Plugin: None (built-in).
[2022.05.15-12.53.50:585][  0]LogAudio: Display: Audio Occlusion Plugin: None (built-in).
[2022.05.15-12.53.50:585][  0]LogAudioMixer: Display: Initializing audio mixer.
[2022.05.15-12.53.50:596][  0]LogAudioMixer: Display: 0: FrontLeft
[2022.05.15-12.53.50:596][  0]LogAudioMixer: Display: 1: FrontRight
[2022.05.15-12.53.50:619][  0]LogAudioMixer: Display: Using Audio Device Динамики (2- USB Audio Device)
[2022.05.15-12.53.50:621][  0]LogAudioMixer: Display: Initializing Sound Submixes...
[2022.05.15-12.53.50:622][  0]LogAudioMixer: Display: Creating Master Submix 'MasterSubmixDefault'
[2022.05.15-12.53.50:622][  0]LogAudioMixer: Display: Creating Master Submix 'MasterReverbSubmixDefault'
[2022.05.15-12.53.50:623][  0]LogAudioMixer: Display: Creating Master Submix 'MasterEQSubmixDefault'
[2022.05.15-12.53.50:623][  0]LogAudioMixer: FMixerPlatformXAudio2::StartAudioStream() called
[2022.05.15-12.53.50:623][  0]LogAudioMixer: Display: Output buffers initialized: Frames=1024, Channels=2, Samples=2048
[2022.05.15-12.53.50:623][  0]LogAudioMixer: Display: Starting AudioMixerPlatformInterface::RunInternal()
[2022.05.15-12.53.50:623][  0]LogAudioMixer: Display: FMixerPlatformXAudio2::SubmitBuffer() called for the first time
[2022.05.15-12.53.50:623][  0]LogInit: FAudioDevice initialized.
[2022.05.15-12.53.50:623][  0]LogAudio: Display: Audio Device (ID: 1) registered with world 'Untitled'.
[2022.05.15-12.53.50:623][  0]LogNetVersion: Set ProjectVersion to 1.0.0.0. Version Checksum will be recalculated on next use.
[2022.05.15-12.53.50:696][  0]LogDerivedDataCache: Saved boot cache 0.07s 94MB C:/Users/Kir/AppData/Local/UnrealEngine/4.27/DerivedDataCache/Boot.ddc.
[2022.05.15-12.53.50:696][  0]LogInit: Texture streaming: Enabled
[2022.05.15-12.53.50:707][  0]LogAnalytics: Display: [UEEditor.Rocket.Release] APIServer = https://datarouter.ol.epicgames.com/. AppVersion = 4.27.2-18319896+++UE4+Release-4.27
[2022.05.15-12.53.50:709][  0]LogEngineSessionManager: EngineSessionManager initialized
[2022.05.15-12.53.50:709][  0]LogEditorSessionSummary: Verbose: Initializing EditorSessionSummaryWriter for editor session tracking
[2022.05.15-12.53.50:710][  0]LogEditorSessionSummary: EditorSessionSummaryWriter initialized
[2022.05.15-12.53.50:730][  0]LogInit: Transaction tracking system initialized
[2022.05.15-12.53.50:746][  0]BlueprintLog: New page: Editor Load
[2022.05.15-12.53.50:787][  0]LocalizationService: Localization service is disabled
[2022.05.15-12.53.50:802][  0]TimingProfiler: Initialize
[2022.05.15-12.53.50:802][  0]TimingProfiler: OnSessionChanged
[2022.05.15-12.53.50:802][  0]LoadingProfiler: Initialize
[2022.05.15-12.53.50:803][  0]LoadingProfiler: OnSessionChanged
[2022.05.15-12.53.50:803][  0]NetworkingProfiler: Initialize
[2022.05.15-12.53.50:803][  0]NetworkingProfiler: OnSessionChanged
[2022.05.15-12.53.50:803][  0]MemoryProfiler: Initialize
[2022.05.15-12.53.50:803][  0]MemoryProfiler: OnSessionChanged
[2022.05.15-12.53.50:887][  0]LogFileCache: Scanning file cache for directory 'D:/Projects/Snake/Content/' took 0.00s
[2022.05.15-12.53.50:887][  0]LogCook: Display: CookSettings for Memory: MemoryMaxUsedVirtual 0MiB, MemoryMaxUsedPhysical 16384MiB, MemoryMinFreeVirtual 0MiB, MemoryMinFreePhysical 1024MiB
[2022.05.15-12.53.50:887][  0]LogCook: Display: Mobile HDR setting 1
[2022.05.15-12.53.51:114][  0]LogInit: Display: Engine is initialized. Leaving FEngineLoop::Init()
[2022.05.15-12.53.51:116][  0]SourceControl: Source control is disabled
[2022.05.15-12.53.51:116][  0]LogUnrealEdMisc: Loading editor; pre map load, took 4.072
[2022.05.15-12.53.51:116][  0]Cmd: MAP LOAD FILE="../../../../../Projects/Snake/Content/MainMap.umap" TEMPLATE=0 SHOWPROGRESS=1 FEATURELEVEL=3
[2022.05.15-12.53.51:116][  0]LightingResults: New page: Lighting Build
[2022.05.15-12.53.51:117][  0]LogWorld: UWorld::CleanupWorld for Untitled, bSessionEnded=true, bCleanupResources=true
[2022.05.15-12.53.51:117][  0]LogSlate: InvalidateAllWidgets triggered.  All widgets were invalidated
[2022.05.15-12.53.51:117][  0]MapCheck: New page: Map Check
[2022.05.15-12.53.51:117][  0]LightingResults: New page: Lighting Build
[2022.05.15-12.53.51:128][  0]LogAudio: Display: Audio Device unregistered from world 'None'.
[2022.05.15-12.53.51:130][  0]LogUObjectHash: Compacting FUObjectHashTables data took   0.63ms
[2022.05.15-12.53.51:164][  0]LogAudio: Display: Audio Device (ID: 1) registered with world 'MainMap'.
[2022.05.15-12.53.51:165][  0]LogAIModule: Creating AISystem for world MainMap
[2022.05.15-12.53.51:167][  0]LogEditorServer: Finished looking for orphan Actors (0.000 secs)
[2022.05.15-12.53.51:172][  0]LogUObjectHash: Compacting FUObjectHashTables data took   0.60ms
[2022.05.15-12.53.51:172][  0]Cmd: MAP CHECKDEP NOCLEARLOG
[2022.05.15-12.53.51:173][  0]MapCheck: Map check complete: 0 Error(s), 0 Warning(s), took 0,039ms to complete.
[2022.05.15-12.53.51:173][  0]LogFileHelpers: Loading map 'MainMap' took 0.056
[2022.05.15-12.53.51:174][  0]LogUnrealEdMisc: Total Editor Startup Time, took 4.130
[2022.05.15-12.53.51:279][  0]LogSlate: Updating window title bar state: overlay mode, drag disabled, window buttons hidden, title bar hidden
[2022.05.15-12.53.51:282][  0]LogSlate: Updating window title bar state: overlay mode, drag disabled, window buttons hidden, title bar hidden
[2022.05.15-12.53.51:286][  0]LogSlate: Updating window title bar state: overlay mode, drag disabled, window buttons hidden, title bar hidden
[2022.05.15-12.53.51:290][  0]LogSlate: Updating window title bar state: overlay mode, drag disabled, window buttons hidden, title bar hidden
[2022.05.15-12.53.51:299][  0]LogNativeClassHierarchy: Verbose: Native class hierarchy populated in 0.0070 seconds. Added 3826 classes and 930 folders.
[2022.05.15-12.53.51:310][  0]LogNativeClassHierarchy: Verbose: Native class hierarchy updated for 'WidgetCarousel' in 0.0002 seconds. Added 0 classes and 0 folders.
[2022.05.15-12.53.51:311][  0]LogPakFile: PakFile PrimaryIndexSize=187
[2022.05.15-12.53.51:311][  0]LogPakFile: PakFile PathHashIndexSize=101
[2022.05.15-12.53.51:311][  0]LogPakFile: PakFile FullDirectoryIndexSize=148
[2022.05.15-12.53.51:311][  0]LogShaderLibrary: Display: ShaderCodeLibraryPakFileMountedCallback: PakFile 'D:/Unreal_Engine/UE_4.27/FeaturePacks/FP_FirstPerson.upack' (chunk index -1, root 'root:/') mounted
[2022.05.15-12.53.51:311][  0]LogShaderLibrary: Display: ShaderCodeLibraryPakFileMountedCallback: pending pak file info (ChunkID:-1 Root:root:/ File:D:/Unreal_Engine/UE_4.27/FeaturePacks/FP_FirstPerson.upack)
[2022.05.15-12.53.51:311][  0]LogPakFile: OnPakFileMounted2Time == 0.000036
[2022.05.15-12.53.51:311][  0]LogPakFile: PakFile PrimaryIndexSize=189
[2022.05.15-12.53.51:311][  0]LogPakFile: PakFile PathHashIndexSize=101
[2022.05.15-12.53.51:311][  0]LogPakFile: PakFile FullDirectoryIndexSize=152
[2022.05.15-12.53.51:311][  0]LogShaderLibrary: Display: ShaderCodeLibraryPakFileMountedCallback: PakFile 'D:/Unreal_Engine/UE_4.27/FeaturePacks/FP_FirstPersonBP.upack' (chunk index -1, root 'root:/') mounted
[2022.05.15-12.53.51:311][  0]LogShaderLibrary: Display: ShaderCodeLibraryPakFileMountedCallback: pending pak file info (ChunkID:-1 Root:root:/ File:D:/Unreal_Engine/UE_4.27/FeaturePacks/FP_FirstPersonBP.upack)
[2022.05.15-12.53.51:311][  0]LogPakFile: OnPakFileMounted2Time == 0.000022
[2022.05.15-12.53.51:311][  0]LogPakFile: PakFile PrimaryIndexSize=191
[2022.05.15-12.53.51:311][  0]LogPakFile: PakFile PathHashIndexSize=101
[2022.05.15-12.53.51:311][  0]LogPakFile: PakFile FullDirectoryIndexSize=160
[2022.05.15-12.53.51:311][  0]LogShaderLibrary: Display: ShaderCodeLibraryPakFileMountedCallback: PakFile 'D:/Unreal_Engine/UE_4.27/FeaturePacks/MobileStarterContent.upack' (chunk index -1, root 'root:/') mounted
[2022.05.15-12.53.51:311][  0]LogShaderLibrary: Display: ShaderCodeLibraryPakFileMountedCallback: pending pak file info (ChunkID:-1 Root:root:/ File:D:/Unreal_Engine/UE_4.27/FeaturePacks/MobileStarterContent.upack)
[2022.05.15-12.53.51:312][  0]LogPakFile: OnPakFileMounted2Time == 0.000021
[2022.05.15-12.53.51:312][  0]LogPakFile: PakFile PrimaryIndexSize=185
[2022.05.15-12.53.51:312][  0]LogPakFile: PakFile PathHashIndexSize=101
[2022.05.15-12.53.51:312][  0]LogPakFile: PakFile FullDirectoryIndexSize=148
[2022.05.15-12.53.51:312][  0]LogShaderLibrary: Display: ShaderCodeLibraryPakFileMountedCallback: PakFile 'D:/Unreal_Engine/UE_4.27/FeaturePacks/StarterContent.upack' (chunk index -1, root 'root:/') mounted
[2022.05.15-12.53.51:312][  0]LogShaderLibrary: Display: ShaderCodeLibraryPakFileMountedCallback: pending pak file info (ChunkID:-1 Root:root:/ File:D:/Unreal_Engine/UE_4.27/FeaturePacks/StarterContent.upack)
[2022.05.15-12.53.51:312][  0]LogPakFile: OnPakFileMounted2Time == 0.000021
[2022.05.15-12.53.51:312][  0]LogPakFile: PakFile PrimaryIndexSize=190
[2022.05.15-12.53.51:312][  0]LogPakFile: PakFile PathHashIndexSize=101
[2022.05.15-12.53.51:312][  0]LogPakFile: PakFile FullDirectoryIndexSize=154
[2022.05.15-12.53.51:312][  0]LogShaderLibrary: Display: ShaderCodeLibraryPakFileMountedCallback: PakFile 'D:/Unreal_Engine/UE_4.27/FeaturePacks/TP_2DSideScroller.upack' (chunk index -1, root 'root:/') mounted
[2022.05.15-12.53.51:312][  0]LogShaderLibrary: Display: ShaderCodeLibraryPakFileMountedCallback: pending pak file info (ChunkID:-1 Root:root:/ File:D:/Unreal_Engine/UE_4.27/FeaturePacks/TP_2DSideScroller.upack)
[2022.05.15-12.53.51:312][  0]LogPakFile: OnPakFileMounted2Time == 0.000020
[2022.05.15-12.53.51:312][  0]LogPakFile: PakFile PrimaryIndexSize=192
[2022.05.15-12.53.51:312][  0]LogPakFile: PakFile PathHashIndexSize=101
[2022.05.15-12.53.51:312][  0]LogPakFile: PakFile FullDirectoryIndexSize=158
[2022.05.15-12.53.51:312][  0]LogShaderLibrary: Display: ShaderCodeLibraryPakFileMountedCallback: PakFile 'D:/Unreal_Engine/UE_4.27/FeaturePacks/TP_2DSideScrollerBP.upack' (chunk index -1, root 'root:/') mounted
[2022.05.15-12.53.51:312][  0]LogShaderLibrary: Display: ShaderCodeLibraryPakFileMountedCallback: pending pak file info (ChunkID:-1 Root:root:/ File:D:/Unreal_Engine/UE_4.27/FeaturePacks/TP_2DSideScrollerBP.upack)
[2022.05.15-12.53.51:312][  0]LogPakFile: OnPakFileMounted2Time == 0.000019
[2022.05.15-12.53.51:313][  0]LogPakFile: PakFile PrimaryIndexSize=182
[2022.05.15-12.53.51:313][  0]LogPakFile: PakFile PathHashIndexSize=101
[2022.05.15-12.53.51:313][  0]LogPakFile: PakFile FullDirectoryIndexSize=138
[2022.05.15-12.53.51:313][  0]LogShaderLibrary: Display: ShaderCodeLibraryPakFileMountedCallback: PakFile 'D:/Unreal_Engine/UE_4.27/FeaturePacks/TP_Flying.upack' (chunk index -1, root 'root:/') mounted
[2022.05.15-12.53.51:313][  0]LogShaderLibrary: Display: ShaderCodeLibraryPakFileMountedCallback: pending pak file info (ChunkID:-1 Root:root:/ File:D:/Unreal_Engine/UE_4.27/FeaturePacks/TP_Flying.upack)
[2022.05.15-12.53.51:313][  0]LogPakFile: OnPakFileMounted2Time == 0.000019
[2022.05.15-12.53.51:313][  0]LogPakFile: PakFile PrimaryIndexSize=184
[2022.05.15-12.53.51:313][  0]LogPakFile: PakFile PathHashIndexSize=101
[2022.05.15-12.53.51:313][  0]LogPakFile: PakFile FullDirectoryIndexSize=142
[2022.05.15-12.53.51:313][  0]LogShaderLibrary: Display: ShaderCodeLibraryPakFileMountedCallback: PakFile 'D:/Unreal_Engine/UE_4.27/FeaturePacks/TP_FlyingBP.upack' (chunk index -1, root 'root:/') mounted
[2022.05.15-12.53.51:313][  0]LogShaderLibrary: Display: ShaderCodeLibraryPakFileMountedCallback: pending pak file info (ChunkID:-1 Root:root:/ File:D:/Unreal_Engine/UE_4.27/FeaturePacks/TP_FlyingBP.upack)
[2022.05.15-12.53.51:313][  0]LogPakFile: OnPakFileMounted2Time == 0.000019
[2022.05.15-12.53.51:313][  0]LogPakFile: PakFile PrimaryIndexSize=188
[2022.05.15-12.53.51:313][  0]LogPakFile: PakFile PathHashIndexSize=101
[2022.05.15-12.53.51:313][  0]LogPakFile: PakFile FullDirectoryIndexSize=150
[2022.05.15-12.53.51:313][  0]LogShaderLibrary: Display: ShaderCodeLibraryPakFileMountedCallback: PakFile 'D:/Unreal_Engine/UE_4.27/FeaturePacks/TP_HandheldARBP.upack' (chunk index -1, root 'root:/') mounted
[2022.05.15-12.53.51:313][  0]LogShaderLibrary: Display: ShaderCodeLibraryPakFileMountedCallback: pending pak file info (ChunkID:-1 Root:root:/ File:D:/Unreal_Engine/UE_4.27/FeaturePacks/TP_HandheldARBP.upack)
[2022.05.15-12.53.51:313][  0]LogPakFile: OnPakFileMounted2Time == 0.000019
[2022.05.15-12.53.51:314][  0]LogPakFile: PakFile PrimaryIndexSize=182
[2022.05.15-12.53.51:314][  0]LogPakFile: PakFile PathHashIndexSize=101
[2022.05.15-12.53.51:314][  0]LogPakFile: PakFile FullDirectoryIndexSize=138
[2022.05.15-12.53.51:314][  0]LogShaderLibrary: Display: ShaderCodeLibraryPakFileMountedCallback: PakFile 'D:/Unreal_Engine/UE_4.27/FeaturePacks/TP_Puzzle.upack' (chunk index -1, root 'root:/') mounted
[2022.05.15-12.53.51:314][  0]LogShaderLibrary: Display: ShaderCodeLibraryPakFileMountedCallback: pending pak file info (ChunkID:-1 Root:root:/ File:D:/Unreal_Engine/UE_4.27/FeaturePacks/TP_Puzzle.upack)
[2022.05.15-12.53.51:314][  0]LogPakFile: OnPakFileMounted2Time == 0.000019
[2022.05.15-12.53.51:314][  0]LogPakFile: PakFile PrimaryIndexSize=184
[2022.05.15-12.53.51:314][  0]LogPakFile: PakFile PathHashIndexSize=101
[2022.05.15-12.53.51:314][  0]LogPakFile: PakFile FullDirectoryIndexSize=142
[2022.05.15-12.53.51:314][  0]LogShaderLibrary: Display: ShaderCodeLibraryPakFileMountedCallback: PakFile 'D:/Unreal_Engine/UE_4.27/FeaturePacks/TP_PuzzleBP.upack' (chunk index -1, root 'root:/') mounted
[2022.05.15-12.53.51:314][  0]LogShaderLibrary: Display: ShaderCodeLibraryPakFileMountedCallback: pending pak file info (ChunkID:-1 Root:root:/ File:D:/Unreal_Engine/UE_4.27/FeaturePacks/TP_PuzzleBP.upack)
[2022.05.15-12.53.51:314][  0]LogPakFile: OnPakFileMounted2Time == 0.000019
[2022.05.15-12.53.51:314][  0]LogPakFile: PakFile PrimaryIndexSize=183
[2022.05.15-12.53.51:314][  0]LogPakFile: PakFile PathHashIndexSize=101
[2022.05.15-12.53.51:314][  0]LogPakFile: PakFile FullDirectoryIndexSize=140
[2022.05.15-12.53.51:314][  0]LogShaderLibrary: Display: ShaderCodeLibraryPakFileMountedCallback: PakFile 'D:/Unreal_Engine/UE_4.27/FeaturePacks/TP_Rolling.upack' (chunk index -1, root 'root:/') mounted
[2022.05.15-12.53.51:314][  0]LogShaderLibrary: Display: ShaderCodeLibraryPakFileMountedCallback: pending pak file info (ChunkID:-1 Root:root:/ File:D:/Unreal_Engine/UE_4.27/FeaturePacks/TP_Rolling.upack)
[2022.05.15-12.53.51:314][  0]LogPakFile: OnPakFileMounted2Time == 0.000019
[2022.05.15-12.53.51:314][  0]LogPakFile: PakFile PrimaryIndexSize=185
[2022.05.15-12.53.51:314][  0]LogPakFile: PakFile PathHashIndexSize=101
[2022.05.15-12.53.51:314][  0]LogPakFile: PakFile FullDirectoryIndexSize=144
[2022.05.15-12.53.51:314][  0]LogShaderLibrary: Display: ShaderCodeLibraryPakFileMountedCallback: PakFile 'D:/Unreal_Engine/UE_4.27/FeaturePacks/TP_RollingBP.upack' (chunk index -1, root 'root:/') mounted
[2022.05.15-12.53.51:314][  0]LogShaderLibrary: Display: ShaderCodeLibraryPakFileMountedCallback: pending pak file info (ChunkID:-1 Root:root:/ File:D:/Unreal_Engine/UE_4.27/FeaturePacks/TP_RollingBP.upack)
[2022.05.15-12.53.51:314][  0]LogPakFile: OnPakFileMounted2Time == 0.000019
[2022.05.15-12.53.51:315][  0]LogPakFile: PakFile PrimaryIndexSize=188
[2022.05.15-12.53.51:315][  0]LogPakFile: PakFile PathHashIndexSize=101
[2022.05.15-12.53.51:315][  0]LogPakFile: PakFile FullDirectoryIndexSize=150
[2022.05.15-12.53.51:315][  0]LogShaderLibrary: Display: ShaderCodeLibraryPakFileMountedCallback: PakFile 'D:/Unreal_Engine/UE_4.27/FeaturePacks/TP_SideScroller.upack' (chunk index -1, root 'root:/') mounted
[2022.05.15-12.53.51:315][  0]LogShaderLibrary: Display: ShaderCodeLibraryPakFileMountedCallback: pending pak file info (ChunkID:-1 Root:root:/ File:D:/Unreal_Engine/UE_4.27/FeaturePacks/TP_SideScroller.upack)
[2022.05.15-12.53.51:315][  0]LogPakFile: OnPakFileMounted2Time == 0.000019
[2022.05.15-12.53.51:315][  0]LogPakFile: PakFile PrimaryIndexSize=190
[2022.05.15-12.53.51:315][  0]LogPakFile: PakFile PathHashIndexSize=101
[2022.05.15-12.53.51:315][  0]LogPakFile: PakFile FullDirectoryIndexSize=154
[2022.05.15-12.53.51:315][  0]LogShaderLibrary: Display: ShaderCodeLibraryPakFileMountedCallback: PakFile 'D:/Unreal_Engine/UE_4.27/FeaturePacks/TP_SideScrollerBP.upack' (chunk index -1, root 'root:/') mounted
[2022.05.15-12.53.51:315][  0]LogShaderLibrary: Display: ShaderCodeLibraryPakFileMountedCallback: pending pak file info (ChunkID:-1 Root:root:/ File:D:/Unreal_Engine/UE_4.27/FeaturePacks/TP_SideScrollerBP.upack)
[2022.05.15-12.53.51:315][  0]LogPakFile: OnPakFileMounted2Time == 0.000019
[2022.05.15-12.53.51:315][  0]LogPakFile: PakFile PrimaryIndexSize=187
[2022.05.15-12.53.51:315][  0]LogPakFile: PakFile PathHashIndexSize=101
[2022.05.15-12.53.51:315][  0]LogPakFile: PakFile FullDirectoryIndexSize=148
[2022.05.15-12.53.51:315][  0]LogShaderLibrary: Display: ShaderCodeLibraryPakFileMountedCallback: PakFile 'D:/Unreal_Engine/UE_4.27/FeaturePacks/TP_ThirdPerson.upack' (chunk index -1, root 'root:/') mounted
[2022.05.15-12.53.51:315][  0]LogShaderLibrary: Display: ShaderCodeLibraryPakFileMountedCallback: pending pak file info (ChunkID:-1 Root:root:/ File:D:/Unreal_Engine/UE_4.27/FeaturePacks/TP_ThirdPerson.upack)
[2022.05.15-12.53.51:315][  0]LogPakFile: OnPakFileMounted2Time == 0.000018
[2022.05.15-12.53.51:316][  0]LogPakFile: PakFile PrimaryIndexSize=189
[2022.05.15-12.53.51:316][  0]LogPakFile: PakFile PathHashIndexSize=101
[2022.05.15-12.53.51:316][  0]LogPakFile: PakFile FullDirectoryIndexSize=152
[2022.05.15-12.53.51:316][  0]LogShaderLibrary: Display: ShaderCodeLibraryPakFileMountedCallback: PakFile 'D:/Unreal_Engine/UE_4.27/FeaturePacks/TP_ThirdPersonBP.upack' (chunk index -1, root 'root:/') mounted
[2022.05.15-12.53.51:316][  0]LogShaderLibrary: Display: ShaderCodeLibraryPakFileMountedCallback: pending pak file info (ChunkID:-1 Root:root:/ File:D:/Unreal_Engine/UE_4.27/FeaturePacks/TP_ThirdPersonBP.upack)
[2022.05.15-12.53.51:316][  0]LogPakFile: OnPakFileMounted2Time == 0.000018
[2022.05.15-12.53.51:316][  0]LogPakFile: PakFile PrimaryIndexSize=183
[2022.05.15-12.53.51:316][  0]LogPakFile: PakFile PathHashIndexSize=101
[2022.05.15-12.53.51:316][  0]LogPakFile: PakFile FullDirectoryIndexSize=140
[2022.05.15-12.53.51:316][  0]LogShaderLibrary: Display: ShaderCodeLibraryPakFileMountedCallback: PakFile 'D:/Unreal_Engine/UE_4.27/FeaturePacks/TP_TopDown.upack' (chunk index -1, root 'root:/') mounted
[2022.05.15-12.53.51:316][  0]LogShaderLibrary: Display: ShaderCodeLibraryPakFileMountedCallback: pending pak file info (ChunkID:-1 Root:root:/ File:D:/Unreal_Engine/UE_4.27/FeaturePacks/TP_TopDown.upack)
[2022.05.15-12.53.51:316][  0]LogPakFile: OnPakFileMounted2Time == 0.000024
[2022.05.15-12.53.51:316][  0]LogPakFile: PakFile PrimaryIndexSize=185
[2022.05.15-12.53.51:316][  0]LogPakFile: PakFile PathHashIndexSize=101
[2022.05.15-12.53.51:316][  0]LogPakFile: PakFile FullDirectoryIndexSize=144
[2022.05.15-12.53.51:316][  0]LogShaderLibrary: Display: ShaderCodeLibraryPakFileMountedCallback: PakFile 'D:/Unreal_Engine/UE_4.27/FeaturePacks/TP_TopDownBP.upack' (chunk index -1, root 'root:/') mounted
[2022.05.15-12.53.51:316][  0]LogShaderLibrary: Display: ShaderCodeLibraryPakFileMountedCallback: pending pak file info (ChunkID:-1 Root:root:/ File:D:/Unreal_Engine/UE_4.27/FeaturePacks/TP_TopDownBP.upack)
[2022.05.15-12.53.51:316][  0]LogPakFile: OnPakFileMounted2Time == 0.000019
[2022.05.15-12.53.51:316][  0]LogPakFile: PakFile PrimaryIndexSize=185
[2022.05.15-12.53.51:316][  0]LogPakFile: PakFile PathHashIndexSize=101
[2022.05.15-12.53.51:316][  0]LogPakFile: PakFile FullDirectoryIndexSize=144
[2022.05.15-12.53.51:316][  0]LogShaderLibrary: Display: ShaderCodeLibraryPakFileMountedCallback: PakFile 'D:/Unreal_Engine/UE_4.27/FeaturePacks/TP_TwinStick.upack' (chunk index -1, root 'root:/') mounted
[2022.05.15-12.53.51:316][  0]LogShaderLibrary: Display: ShaderCodeLibraryPakFileMountedCallback: pending pak file info (ChunkID:-1 Root:root:/ File:D:/Unreal_Engine/UE_4.27/FeaturePacks/TP_TwinStick.upack)
[2022.05.15-12.53.51:316][  0]LogPakFile: OnPakFileMounted2Time == 0.000020
[2022.05.15-12.53.51:317][  0]LogPakFile: PakFile PrimaryIndexSize=187
[2022.05.15-12.53.51:317][  0]LogPakFile: PakFile PathHashIndexSize=101
[2022.05.15-12.53.51:317][  0]LogPakFile: PakFile FullDirectoryIndexSize=148
[2022.05.15-12.53.51:317][  0]LogShaderLibrary: Display: ShaderCodeLibraryPakFileMountedCallback: PakFile 'D:/Unreal_Engine/UE_4.27/FeaturePacks/TP_TwinStickBP.upack' (chunk index -1, root 'root:/') mounted
[2022.05.15-12.53.51:317][  0]LogShaderLibrary: Display: ShaderCodeLibraryPakFileMountedCallback: pending pak file info (ChunkID:-1 Root:root:/ File:D:/Unreal_Engine/UE_4.27/FeaturePacks/TP_TwinStickBP.upack)
[2022.05.15-12.53.51:317][  0]LogPakFile: OnPakFileMounted2Time == 0.000018
[2022.05.15-12.53.51:317][  0]LogPakFile: PakFile PrimaryIndexSize=183
[2022.05.15-12.53.51:317][  0]LogPakFile: PakFile PathHashIndexSize=101
[2022.05.15-12.53.51:317][  0]LogPakFile: PakFile FullDirectoryIndexSize=140
[2022.05.15-12.53.51:317][  0]LogShaderLibrary: Display: ShaderCodeLibraryPakFileMountedCallback: PakFile 'D:/Unreal_Engine/UE_4.27/FeaturePacks/TP_Vehicle.upack' (chunk index -1, root 'root:/') mounted
[2022.05.15-12.53.51:317][  0]LogShaderLibrary: Display: ShaderCodeLibraryPakFileMountedCallback: pending pak file info (ChunkID:-1 Root:root:/ File:D:/Unreal_Engine/UE_4.27/FeaturePacks/TP_Vehicle.upack)
[2022.05.15-12.53.51:317][  0]LogPakFile: OnPakFileMounted2Time == 0.000019
[2022.05.15-12.53.51:317][  0]LogPakFile: PakFile PrimaryIndexSize=186
[2022.05.15-12.53.51:317][  0]LogPakFile: PakFile PathHashIndexSize=101
[2022.05.15-12.53.51:317][  0]LogPakFile: PakFile FullDirectoryIndexSize=146
[2022.05.15-12.53.51:317][  0]LogShaderLibrary: Display: ShaderCodeLibraryPakFileMountedCallback: PakFile 'D:/Unreal_Engine/UE_4.27/FeaturePacks/TP_VehicleAdv.upack' (chunk index -1, root 'root:/') mounted
[2022.05.15-12.53.51:317][  0]LogShaderLibrary: Display: ShaderCodeLibraryPakFileMountedCallback: pending pak file info (ChunkID:-1 Root:root:/ File:D:/Unreal_Engine/UE_4.27/FeaturePacks/TP_VehicleAdv.upack)
[2022.05.15-12.53.51:317][  0]LogPakFile: OnPakFileMounted2Time == 0.000019
[2022.05.15-12.53.51:318][  0]LogPakFile: PakFile PrimaryIndexSize=188
[2022.05.15-12.53.51:318][  0]LogPakFile: PakFile PathHashIndexSize=101
[2022.05.15-12.53.51:318][  0]LogPakFile: PakFile FullDirectoryIndexSize=150
[2022.05.15-12.53.51:318][  0]LogShaderLibrary: Display: ShaderCodeLibraryPakFileMountedCallback: PakFile 'D:/Unreal_Engine/UE_4.27/FeaturePacks/TP_VehicleAdvBP.upack' (chunk index -1, root 'root:/') mounted
[2022.05.15-12.53.51:318][  0]LogShaderLibrary: Display: ShaderCodeLibraryPakFileMountedCallback: pending pak file info (ChunkID:-1 Root:root:/ File:D:/Unreal_Engine/UE_4.27/FeaturePacks/TP_VehicleAdvBP.upack)
[2022.05.15-12.53.51:318][  0]LogPakFile: OnPakFileMounted2Time == 0.000020
[2022.05.15-12.53.51:318][  0]LogPakFile: PakFile PrimaryIndexSize=185
[2022.05.15-12.53.51:318][  0]LogPakFile: PakFile PathHashIndexSize=101
[2022.05.15-12.53.51:318][  0]LogPakFile: PakFile FullDirectoryIndexSize=144
[2022.05.15-12.53.51:318][  0]LogShaderLibrary: Display: ShaderCodeLibraryPakFileMountedCallback: PakFile 'D:/Unreal_Engine/UE_4.27/FeaturePacks/TP_VehicleBP.upack' (chunk index -1, root 'root:/') mounted
[2022.05.15-12.53.51:318][  0]LogShaderLibrary: Display: ShaderCodeLibraryPakFileMountedCallback: pending pak file info (ChunkID:-1 Root:root:/ File:D:/Unreal_Engine/UE_4.27/FeaturePacks/TP_VehicleBP.upack)
[2022.05.15-12.53.51:318][  0]LogPakFile: OnPakFileMounted2Time == 0.000019
[2022.05.15-12.53.51:318][  0]LogPakFile: PakFile PrimaryIndexSize=192
[2022.05.15-12.53.51:318][  0]LogPakFile: PakFile PathHashIndexSize=101
[2022.05.15-12.53.51:318][  0]LogPakFile: PakFile FullDirectoryIndexSize=158
[2022.05.15-12.53.51:318][  0]LogShaderLibrary: Display: ShaderCodeLibraryPakFileMountedCallback: PakFile 'D:/Unreal_Engine/UE_4.27/FeaturePacks/TP_VirtualRealityBP.upack' (chunk index -1, root 'root:/') mounted
[2022.05.15-12.53.51:318][  0]LogShaderLibrary: Display: ShaderCodeLibraryPakFileMountedCallback: pending pak file info (ChunkID:-1 Root:root:/ File:D:/Unreal_Engine/UE_4.27/FeaturePacks/TP_VirtualRealityBP.upack)
[2022.05.15-12.53.51:318][  0]LogPakFile: OnPakFileMounted2Time == 0.000019
[2022.05.15-12.53.51:341][  0]LogNativeClassHierarchy: Verbose: Native class hierarchy updated for 'AddContentDialog' in 0.0002 seconds. Added 0 classes and 0 folders.
[2022.05.15-12.53.51:344][  0]LogNativeClassHierarchy: Verbose: Native class hierarchy updated for 'SceneOutliner' in 0.0002 seconds. Added 2 classes and 0 folders.
[2022.05.15-12.53.51:562][  0]LogSlate: Only BGRA pngs, bmps or icos are supported in by External Image Picker
[2022.05.15-12.53.51:628][  0]LogSlate: Took 0.000089 seconds to synchronously load lazily loaded font '../../../Engine/Content/Slate/Fonts/Roboto-Regular.ttf' (155K)
[2022.05.15-12.53.51:629][  0]LogSlate: Took 0.000071 seconds to synchronously load lazily loaded font '../../../Engine/Content/Editor/Slate/Fonts/FontAwesome.ttf' (139K)
[2022.05.15-12.53.51:631][  0]LogSlate: Took 0.000071 seconds to synchronously load lazily loaded font '../../../Engine/Content/Slate/Fonts/Roboto-Bold.ttf' (160K)
[2022.05.15-12.53.51:634][  0]LogSlate: Took 0.000073 seconds to synchronously load lazily loaded font '../../../Engine/Content/Slate/Fonts/DroidSansMono.ttf' (77K)
[2022.05.15-12.53.51:727][  0]LogRenderer: Reallocating scene render targets to support 1160x488 Format 10 NumSamples 1 (Frame:1).
[2022.05.15-12.53.51:755][  0]LogSlate: Took 0.000077 seconds to synchronously load lazily loaded font '../../../Engine/Content/Slate/Fonts/Roboto-Light.ttf' (167K)
[2022.05.15-12.53.51:787][  0]LogNativeClassHierarchy: Verbose: Native class hierarchy updated for 'HierarchicalLODOutliner' in 0.0002 seconds. Added 0 classes and 0 folders.
[2022.05.15-12.53.51:787][  0]LogLoad: (Engine Initialization) Total time: 4.74 seconds
[2022.05.15-12.53.51:787][  0]LogLoad: (Engine Initialization) Total Blueprint compile time: 0.00 seconds
[2022.05.15-12.53.51:837][  0]LogAssetRegistry: Asset discovery search completed in 2.9999 seconds
[2022.05.15-12.53.51:841][  0]LogCollectionManager: Fixed up redirectors for 0 collections in 0.000003 seconds (updated 0 objects)
[2022.05.15-12.53.51:842][  0]LogContentStreaming: Texture pool size now 3000 MB
[2022.05.15-12.53.59:339][872]LogUObjectHash: Compacting FUObjectHashTables data took   0.60ms
[2022.05.15-12.54.01:494][872]LogSlate: Window 'Delete Assets' being destroyed
[2022.05.15-12.54.01:507][872]LogUObjectGlobals: Force Deleting 1 Package(s):
	Asset Name: /Game/BP_Head.BP_Head
[2022.05.15-12.54.01:509][872]LogSlate: Took 0.000103 seconds to synchronously load lazily loaded font '../../../Engine/Content/Slate/Fonts/Roboto-Light.ttf' (167K)
[2022.05.15-12.54.01:783][872]LogUObjectHash: Compacting FUObjectHashTables data took   0.55ms
[2022.05.15-12.54.01:791][872]LogUObjectHash: Compacting FUObjectHashTables data took   0.47ms
[2022.05.15-12.54.01:794][872]LogUObjectHash: Compacting FUObjectHashTables data took   0.45ms
[2022.05.15-12.54.01:796][872]LogUObjectHash: Compacting FUObjectHashTables data took   0.15ms
[2022.05.15-12.54.15:694][502]LogEditorClassViewer: Warning: Class /Engine/Tutorial/InWorldBlueprintEditing/TutorialAssets/IWBE_Blutility.IWBE_Blutility_C has parent /Script/Blutility.PlacedEditorUtilityBase, but this parent is not found. The Class will not be shown in ClassViewer.
[2022.05.15-12.54.15:750][502]LogSlate: Took 0.000108 seconds to synchronously load lazily loaded font '../../../Engine/Content/Slate/Fonts/Roboto-BoldCondensed.ttf' (158K)
[2022.05.15-12.54.50:385][629]Running D:/Unreal_Engine/UE_4.27/Engine/Binaries/DotNET/UnrealBuildTool.exe  -projectfiles -project="D:/Projects/Snake/Snake.uproject" -game -rocket -progress
[2022.05.15-12.54.50:589][629]Discovering modules, targets and source code for project...
[2022.05.15-12.54.51:494][629]Binding IntelliSense data...
[2022.05.15-12.54.52:098][629]Using Simplygon SDK at: C:\Program Files\Simplygon\9
[2022.05.15-12.54.52:816][629]Binding IntelliSense data... 100%
[2022.05.15-12.54.52:816][629]Writing project files...
[2022.05.15-12.54.54:829][629]Writing project files... 100%
[2022.05.15-12.54.54:931][629]LogVSAccessor: Warning: Couldn't access Visual Studio
[2022.05.15-12.54.54:937][629]Candidate modules for hot reload:
[2022.05.15-12.54.54:937][629]  Snake
[2022.05.15-12.54.54:937][629]Launching UnrealBuildTool... [D:/Unreal_Engine/UE_4.27/Engine/Binaries/DotNET/UnrealBuildTool.exe  -ModuleWithSuffix=Snake,8680 SnakeEditor Win64 Development -Project="D:/Projects/Snake/Snake.uproject" "D:/Projects/Snake/Snake.uproject"  -IgnoreJunk]
[2022.05.15-12.54.59:777][629]CompilerResultsLog: New page: Compilation - 15 мая 2022 г., 18:54:59
[2022.05.15-12.54.59:777][629]CompilerResultsLog: Creating makefile for SnakeEditor (no existing makefile)
[2022.05.15-12.54.59:777][629]CompilerResultsLog: Parsing headers for SnakeEditor
[2022.05.15-12.54.59:777][629]CompilerResultsLog:   Running UnrealHeaderTool "D:\Projects\Snake\Snake.uproject" "D:\Projects\Snake\Intermediate\Build\Win64\SnakeEditor\Development\SnakeEditor.uhtmanifest" -LogCmds="loginit warning, logexit warning, logdatabase error" -Unattended -WarningsAsErrors -abslog="C:\Users\Kir\AppData\Local\UnrealBuildTool\Log_UHT.txt" -installed
[2022.05.15-12.54.59:777][629]CompilerResultsLog: LogInit: Display: Loading text-based GConfig....
[2022.05.15-12.54.59:777][629]CompilerResultsLog: Reflection code generated for SnakeEditor in 2,5245172 seconds
[2022.05.15-12.54.59:777][629]CompilerResultsLog: Building SnakeEditor...
[2022.05.15-12.54.59:777][629]CompilerResultsLog: Using Visual Studio 2022 14.31.31105 toolchain (d:\Program Files\Microsoft Visual Studio\2022\Community\VC\Tools\MSVC\14.31.31103) and Windows 10.0.19041.0 SDK (C:\Program Files (x86)\Windows Kits\10).
[2022.05.15-12.54.59:777][629]CompilerResultsLog: Building 9 actions with 24 processes...
[2022.05.15-12.54.59:777][629]CompilerResultsLog:   [1/9] ActorSnake.cpp
[2022.05.15-12.54.59:777][629]CompilerResultsLog:   [2/9] Obstacles.cpp
[2022.05.15-12.54.59:777][629]CompilerResultsLog:   [3/9] MainPawn.cpp
[2022.05.15-12.54.59:777][629]CompilerResultsLog:   [4/9] Snake.init.gen.cpp
[2022.05.15-12.54.59:777][629]CompilerResultsLog:   [5/9] ActorSnake.gen.cpp
[2022.05.15-12.54.59:777][629]CompilerResultsLog:   [6/9] MainPawn.gen.cpp
[2022.05.15-12.54.59:777][629]CompilerResultsLog:   [7/9] UE4Editor-Snake-8680.lib
[2022.05.15-12.54.59:777][629]CompilerResultsLog:      ????????? ??????⥪? D:\Projects\Snake\Intermediate\Build\Win64\UE4Editor\Development\Snake\UE4Editor-Snake-8680.lib ? ??ꥪ? D:\Projects\Snake\Intermediate\Build\Win64\UE4Editor\Development\Snake\UE4Editor-Snake-8680.exp
[2022.05.15-12.54.59:777][629]CompilerResultsLog:   [8/9] UE4Editor-Snake-8680.dll
[2022.05.15-12.54.59:777][629]CompilerResultsLog:      ????????? ??????⥪? D:\Projects\Snake\Intermediate\Build\Win64\UE4Editor\Development\Snake\UE4Editor-Snake-8680.suppressed.lib ? ??ꥪ? D:\Projects\Snake\Intermediate\Build\Win64\UE4Editor\Development\Snake\UE4Editor-Snake-8680.suppressed.exp
[2022.05.15-12.54.59:777][629]CompilerResultsLog:   [9/9] SnakeEditor.target
[2022.05.15-12.54.59:777][629]CompilerResultsLog: Total time in Parallel executor: 1,02 seconds
[2022.05.15-12.54.59:777][629]CompilerResultsLog: Total execution time: 4,78 seconds
[2022.05.15-12.54.59:777][629]LogMainFrame: MainFrame: Module compiling took 4.846 seconds
[2022.05.15-12.54.59:799][629]LogClass: Could not find existing class ActorSnake in package /Script/Snake for HotReload, assuming new class
[2022.05.15-12.54.59:799][629]LogClass: Could not find existing class MainPawn in package /Script/Snake for HotReload, assuming new class
[2022.05.15-12.54.59:803][629]LogHotReload: Re-instancing MainPawn after hot-reload.
[2022.05.15-12.54.59:808][629]LogNativeClassHierarchy: Verbose: Native class hierarchy updated for 'Snake' in 0.0003 seconds. Added 5 classes and 2 folders.
[2022.05.15-12.54.59:810][629]Display: HotReload successful (0 functions remapped  0 scriptstructs remapped)
[2022.05.15-12.54.59:855][629]LogNativeClassHierarchy: Verbose: Native class hierarchy populated in 0.0072 seconds. Added 3827 classes and 930 folders.
[2022.05.15-12.54.59:855][629]Display: HotReload took  4.9s.
[2022.05.15-12.54.59:863][629]Warning: HotReload operation took  4.9s.
[2022.05.15-12.54.59:942][629]LogSlate: Window 'Add C++ Class' being destroyed
[2022.05.15-12.54.59:947][629]LogHotReload: New module detected: UE4Editor-Snake-8680.dll
[2022.05.15-12.55.00:017][629]LogSlate: Took 0.001484 seconds to synchronously load lazily loaded font '../../../Engine/Content/Slate/Fonts/DroidSansFallback.ttf' (3848K)
[2022.05.15-12.55.00:017][629]LogSlate: Last resort fallback font was requested. Font: '../../../Engine/Content/Slate/Fonts/DroidSansFallback.ttf', Character: '⥪ (U+296a)'
[2022.05.15-12.55.00:019][629]LogSlate: Took 0.001356 seconds to synchronously load lazily loaded font '../../../Engine/Content/SlateDebug/Fonts/LastResort.ttf' (5269K)
[2022.05.15-12.55.00:032][630]LogHotReload: Starting Hot-Reload from IDE
[2022.05.15-12.55.00:216][630]LogNativeClassHierarchy: Verbose: Native class hierarchy updated for 'Snake' in 0.0003 seconds. Added 5 classes and 2 folders.
[2022.05.15-12.55.00:218][630]Display: HotReload successful (0 functions remapped  0 scriptstructs remapped)
[2022.05.15-12.55.00:227][630]LogNativeClassHierarchy: Verbose: Native class hierarchy populated in 0.0071 seconds. Added 3827 classes and 930 folders.
[2022.05.15-12.55.00:230][630]Display: HotReload took  0.2s.
[2022.05.15-12.59.39:617][443]LogHotReload: New module detected: UE4Editor-Snake-0002.dll
[2022.05.15-12.59.40:306][446]LogHotReload: Starting Hot-Reload from IDE
[2022.05.15-12.59.40:339][446]LogClass: Could not find existing class ActorSnake in package /Script/Snake for HotReload, assuming new class
[2022.05.15-12.59.40:342][446]LogHotReload: Re-instancing ActorSnake after hot-reload.
[2022.05.15-12.59.40:347][446]LogNativeClassHierarchy: Verbose: Native class hierarchy updated for 'Snake' in 0.0003 seconds. Added 5 classes and 2 folders.
[2022.05.15-12.59.40:349][446]Display: HotReload successful (0 functions remapped  0 scriptstructs remapped)
[2022.05.15-12.59.40:375][446]LogNativeClassHierarchy: Verbose: Native class hierarchy populated in 0.0075 seconds. Added 3827 classes and 930 folders.
[2022.05.15-12.59.40:379][446]Display: HotReload took  0.1s.
[2022.05.15-13.01.56:346][850]LogHotReload: New module detected: UE4Editor-Snake-0003.dll
[2022.05.15-13.01.57:028][853]LogHotReload: Starting Hot-Reload from IDE
[2022.05.15-13.01.57:059][853]LogClass: Could not find existing class MainPawn in package /Script/Snake for HotReload, assuming new class
[2022.05.15-13.01.57:063][853]LogHotReload: Re-instancing MainPawn after hot-reload.
[2022.05.15-13.01.57:068][853]LogNativeClassHierarchy: Verbose: Native class hierarchy updated for 'Snake' in 0.0003 seconds. Added 5 classes and 2 folders.
[2022.05.15-13.01.57:069][853]Display: HotReload successful (0 functions remapped  0 scriptstructs remapped)
[2022.05.15-13.01.57:094][853]LogNativeClassHierarchy: Verbose: Native class hierarchy populated in 0.0075 seconds. Added 3827 classes and 930 folders.
[2022.05.15-13.01.57:098][853]Display: HotReload took  0.1s.
[2022.05.15-13.03.45:063][174]LogHotReload: New module detected: UE4Editor-Snake-0004.dll
[2022.05.15-13.03.45:411][176]LogHotReload: Starting Hot-Reload from IDE
[2022.05.15-13.03.45:444][176]LogClass: Could not find existing class MainPawn in package /Script/Snake for HotReload, assuming new class
[2022.05.15-13.03.45:447][176]LogHotReload: Re-instancing MainPawn after hot-reload.
[2022.05.15-13.03.45:452][176]LogNativeClassHierarchy: Verbose: Native class hierarchy updated for 'Snake' in 0.0002 seconds. Added 5 classes and 2 folders.
[2022.05.15-13.03.45:454][176]Display: HotReload successful (0 functions remapped  0 scriptstructs remapped)
[2022.05.15-13.03.45:479][176]LogNativeClassHierarchy: Verbose: Native class hierarchy populated in 0.0076 seconds. Added 3827 classes and 930 folders.
[2022.05.15-13.03.45:483][176]Display: HotReload took  0.1s.
[2022.05.15-13.06.59:735][754]LogHotReload: New module detected: UE4Editor-Snake-0006.dll
[2022.05.15-13.07.00:419][757]LogHotReload: Starting Hot-Reload from IDE
[2022.05.15-13.07.00:451][757]LogOutputDevice: Warning: 

Script Stack (0 frames):

[2022.05.15-13.07.00:451][757]LogWindows: Windows GetLastError: Операция успешно завершена. (0)
